<svg width="353" height="132" viewBox="0 0 353 132" fill="none" xmlns="http://www.w3.org/2000/svg">
<path d="M5.508 17C9.234 17 11.664 14.426 11.664 11.006C11.664 7.604 9.234 4.994 5.508 4.994H1.404V17H5.508ZM5.508 15.668H2.898V6.326H5.508C8.478 6.326 10.116 8.414 10.116 11.006C10.116 13.58 8.424 15.668 5.508 15.668ZM21.0995 17V11.024C21.0995 8.918 19.5695 8.09 17.7335 8.09C16.3115 8.09 15.1955 8.558 14.2595 9.53L14.8895 10.466C15.6635 9.638 16.5095 9.26 17.5535 9.26C18.8135 9.26 19.7495 9.926 19.7495 11.096V12.662C19.0475 11.852 18.0575 11.474 16.8695 11.474C15.3935 11.474 13.8275 12.392 13.8275 14.336C13.8275 16.226 15.3935 17.216 16.8695 17.216C18.0395 17.216 19.0295 16.802 19.7495 16.01V17H21.0995ZM17.3555 16.244C16.0955 16.244 15.2135 15.452 15.2135 14.354C15.2135 13.238 16.0955 12.446 17.3555 12.446C18.3095 12.446 19.2275 12.806 19.7495 13.526V15.164C19.2275 15.884 18.3095 16.244 17.3555 16.244ZM26.3617 17.216C27.1537 17.216 27.6397 16.982 27.9817 16.658L27.5857 15.65C27.4057 15.848 27.0457 16.01 26.6677 16.01C26.0737 16.01 25.7857 15.542 25.7857 14.894V9.494H27.5497V8.306H25.7857V5.93H24.4357V8.306H22.9957V9.494H24.4357V15.182C24.4357 16.478 25.0837 17.216 26.3617 17.216ZM33.7407 17.216C35.1627 17.216 36.3327 16.748 37.1967 15.884L36.5487 15.002C35.8647 15.704 34.8567 16.1 33.8667 16.1C31.9947 16.1 30.8427 14.732 30.7347 13.094H37.7727V12.752C37.7727 10.142 36.2247 8.09 33.5967 8.09C31.1127 8.09 29.3127 10.124 29.3127 12.644C29.3127 15.362 31.1667 17.216 33.7407 17.216ZM36.4407 12.104H30.7347C30.8067 10.772 31.7247 9.206 33.5787 9.206C35.5587 9.206 36.4227 10.808 36.4407 12.104ZM91.0455 10.16C91.5855 10.16 92.0355 9.71 92.0355 9.17C92.0355 8.63 91.5855 8.18 91.0455 8.18C90.5055 8.18 90.0555 8.63 90.0555 9.17C90.0555 9.71 90.5055 10.16 91.0455 10.16ZM91.0455 17.18C91.5855 17.18 92.0355 16.73 92.0355 16.19C92.0355 15.65 91.5855 15.2 91.0455 15.2C90.5055 15.2 90.0555 15.65 90.0555 16.19C90.0555 16.73 90.5055 17.18 91.0455 17.18ZM108.777 17.216C112.017 17.216 113.205 15.434 113.205 13.688C113.205 9.206 106.095 10.754 106.095 8.054C106.095 6.92 107.121 6.146 108.561 6.146C109.875 6.146 111.135 6.596 112.035 7.586L112.935 6.488C111.927 5.426 110.505 4.814 108.669 4.814C106.311 4.814 104.547 6.164 104.547 8.144C104.547 12.428 111.657 10.718 111.657 13.814C111.657 14.732 110.973 15.884 108.831 15.884C107.139 15.884 105.843 15.056 105.051 14.174L104.169 15.308C105.159 16.424 106.689 17.216 108.777 17.216ZM122.96 17V8.306H121.61V14.696C121.106 15.398 120.098 16.01 119.036 16.01C117.866 16.01 117.092 15.56 117.092 14.03V8.306H115.742V14.444C115.742 16.334 116.696 17.216 118.514 17.216C119.81 17.216 120.944 16.532 121.61 15.776V17H122.96ZM133.234 17V10.898C133.234 9.008 132.28 8.09 130.462 8.09C129.166 8.09 127.978 8.846 127.366 9.566V8.306H126.016V17H127.366V10.646C127.87 9.944 128.878 9.296 129.94 9.296C131.11 9.296 131.884 9.782 131.884 11.312V17H133.234ZM143.94 17V4.994H142.59V9.62C141.888 8.666 140.826 8.09 139.656 8.09C137.37 8.09 135.786 9.89 135.786 12.662C135.786 15.488 137.388 17.216 139.656 17.216C140.88 17.216 141.942 16.586 142.59 15.704V17H143.94ZM139.98 16.01C138.234 16.01 137.19 14.588 137.19 12.662C137.19 10.736 138.234 9.296 139.98 9.296C141.06 9.296 142.104 9.944 142.59 10.7V14.642C142.104 15.398 141.06 16.01 139.98 16.01ZM153.79 17V11.024C153.79 8.918 152.26 8.09 150.424 8.09C149.002 8.09 147.886 8.558 146.95 9.53L147.58 10.466C148.354 9.638 149.2 9.26 150.244 9.26C151.504 9.26 152.44 9.926 152.44 11.096V12.662C151.738 11.852 150.748 11.474 149.56 11.474C148.084 11.474 146.518 12.392 146.518 14.336C146.518 16.226 148.084 17.216 149.56 17.216C150.73 17.216 151.72 16.802 152.44 16.01V17H153.79ZM150.046 16.244C148.786 16.244 147.904 15.452 147.904 14.354C147.904 13.238 148.786 12.446 150.046 12.446C151 12.446 151.918 12.806 152.44 13.526V15.164C151.918 15.884 151 16.244 150.046 16.244ZM156.37 20.402C156.622 20.474 157.072 20.528 157.36 20.528C158.512 20.51 159.394 20.024 159.916 18.764L164.272 8.306H162.796L159.916 15.434L157.018 8.306H155.56L159.196 17.09L158.62 18.404C158.314 19.124 157.918 19.322 157.324 19.322C157.108 19.322 156.784 19.268 156.586 19.178L156.37 20.402ZM166.839 16.568C166.839 15.704 166.299 15.2 165.705 15.2C165.165 15.2 164.751 15.65 164.751 16.172C164.751 16.712 165.111 17.09 165.615 17.09C165.705 17.09 165.831 17.072 165.867 17.054C165.795 17.648 165.273 18.35 164.697 18.728L165.363 19.286C166.191 18.692 166.839 17.666 166.839 16.568ZM186.338 17V4.994H184.196L180.452 14.03L176.726 4.994H174.584V17H176.078V7.118L180.146 17H180.758L184.844 7.118V17H186.338ZM196.23 17V11.024C196.23 8.918 194.7 8.09 192.864 8.09C191.442 8.09 190.326 8.558 189.39 9.53L190.02 10.466C190.794 9.638 191.64 9.26 192.684 9.26C193.944 9.26 194.88 9.926 194.88 11.096V12.662C194.178 11.852 193.188 11.474 192 11.474C190.524 11.474 188.958 12.392 188.958 14.336C188.958 16.226 190.524 17.216 192 17.216C193.17 17.216 194.16 16.802 194.88 16.01V17H196.23ZM192.486 16.244C191.226 16.244 190.344 15.452 190.344 14.354C190.344 13.238 191.226 12.446 192.486 12.446C193.44 12.446 194.358 12.806 194.88 13.526V15.164C194.358 15.884 193.44 16.244 192.486 16.244ZM198.811 20.402C199.063 20.474 199.513 20.528 199.801 20.528C200.953 20.51 201.835 20.024 202.357 18.764L206.713 8.306H205.237L202.357 15.434L199.459 8.306H198.001L201.637 17.09L201.061 18.404C200.755 19.124 200.359 19.322 199.765 19.322C199.549 19.322 199.225 19.268 199.027 19.178L198.811 20.402ZM216.919 17.216C219.565 17.216 221.167 15.758 221.167 13.76C221.167 11.834 219.493 10.898 218.395 10.808C219.529 10.61 220.987 9.746 220.987 8.018C220.987 5.984 219.223 4.814 216.919 4.814C215.065 4.814 213.679 5.624 212.815 6.668L213.643 7.604C214.525 6.65 215.497 6.146 216.811 6.146C218.269 6.146 219.493 6.866 219.493 8.198C219.493 9.584 218.215 10.178 216.703 10.178C216.217 10.178 215.659 10.178 215.461 10.16V11.528C215.641 11.51 216.199 11.51 216.703 11.51C218.467 11.51 219.691 12.14 219.691 13.634C219.691 15.02 218.629 15.884 216.883 15.884C215.461 15.884 214.237 15.236 213.535 14.3L212.653 15.236C213.391 16.316 214.885 17.216 216.919 17.216ZM228.019 17.216C231.295 17.216 232.609 13.922 232.609 11.006C232.609 8.072 231.295 4.814 228.019 4.814C224.725 4.814 223.429 8.072 223.429 11.006C223.429 13.922 224.725 17.216 228.019 17.216ZM228.019 15.884C225.733 15.884 224.959 13.4 224.959 11.006C224.959 8.612 225.733 6.146 228.019 6.146C230.305 6.146 231.079 8.612 231.079 11.006C231.079 13.4 230.305 15.884 228.019 15.884ZM237.438 17.216C238.23 17.216 238.716 16.982 239.058 16.658L238.662 15.65C238.482 15.848 238.122 16.01 237.744 16.01C237.15 16.01 236.862 15.542 236.862 14.894V9.494H238.626V8.306H236.862V5.93H235.512V8.306H234.072V9.494H235.512V15.182C235.512 16.478 236.16 17.216 237.438 17.216ZM248.129 17V10.862C248.129 8.972 247.175 8.09 245.357 8.09C244.043 8.09 242.855 8.846 242.243 9.566V4.994H240.893V17H242.243V10.646C242.765 9.944 243.773 9.296 244.817 9.296C245.987 9.296 246.779 9.746 246.779 11.276V17H248.129ZM264.052 17V15.668H258.166C261.514 13.022 263.998 10.79 263.998 8.342C263.998 5.948 261.964 4.814 259.966 4.814C258.274 4.814 256.708 5.498 255.79 6.704L256.708 7.658C257.41 6.758 258.526 6.146 259.966 6.146C261.208 6.146 262.468 6.812 262.468 8.342C262.468 10.412 260.128 12.41 255.808 15.812V17H264.052ZM271.286 17.216C274.562 17.216 275.876 13.922 275.876 11.006C275.876 8.072 274.562 4.814 271.286 4.814C267.992 4.814 266.696 8.072 266.696 11.006C266.696 13.922 267.992 17.216 271.286 17.216ZM271.286 15.884C269 15.884 268.226 13.4 268.226 11.006C268.226 8.612 269 6.146 271.286 6.146C273.572 6.146 274.346 8.612 274.346 11.006C274.346 13.4 273.572 15.884 271.286 15.884ZM286.375 17V15.668H280.489C283.837 13.022 286.321 10.79 286.321 8.342C286.321 5.948 284.287 4.814 282.289 4.814C280.597 4.814 279.031 5.498 278.113 6.704L279.031 7.658C279.733 6.758 280.849 6.146 282.289 6.146C283.531 6.146 284.791 6.812 284.791 8.342C284.791 10.412 282.451 12.41 278.131 15.812V17H286.375ZM292.799 17V4.994H291.485L288.479 8.09L289.379 9.008L291.305 6.974V17H292.799ZM5.868 39V28.326H9.684V26.994H0.576V28.326H4.374V39H5.868ZM12.6416 29.064C13.1456 29.064 13.5596 28.668 13.5596 28.164C13.5596 27.66 13.1456 27.246 12.6416 27.246C12.1556 27.246 11.7416 27.66 11.7416 28.164C11.7416 28.668 12.1556 29.064 12.6416 29.064ZM13.3256 39V30.306H11.9756V39H13.3256ZM28.2226 39V32.718C28.2226 30.972 27.3766 30.09 25.7926 30.09C24.5326 30.09 23.3626 30.918 22.8766 31.71C22.6246 30.81 21.8686 30.09 20.5366 30.09C19.2586 30.09 18.0886 31.008 17.7286 31.566V30.306H16.3786V39H17.7286V32.646C18.1966 31.944 19.1326 31.296 20.0146 31.296C21.1486 31.296 21.6166 31.998 21.6166 33.096V39H22.9666V32.628C23.4166 31.944 24.3706 31.296 25.2706 31.296C26.3866 31.296 26.8726 31.998 26.8726 33.096V39H28.2226ZM35.1997 39.216C36.6217 39.216 37.7917 38.748 38.6557 37.884L38.0077 37.002C37.3237 37.704 36.3157 38.1 35.3257 38.1C33.4537 38.1 32.3017 36.732 32.1937 35.094H39.2317V34.752C39.2317 32.142 37.6837 30.09 35.0557 30.09C32.5717 30.09 30.7717 32.124 30.7717 34.644C30.7717 37.362 32.6257 39.216 35.1997 39.216ZM37.8997 34.104H32.1937C32.2657 32.772 33.1837 31.206 35.0377 31.206C37.0177 31.206 37.8817 32.808 37.8997 34.104ZM92.5045 32.16C93.0445 32.16 93.4945 31.71 93.4945 31.17C93.4945 30.63 93.0445 30.18 92.5045 30.18C91.9645 30.18 91.5145 30.63 91.5145 31.17C91.5145 31.71 91.9645 32.16 92.5045 32.16ZM92.5045 39.18C93.0445 39.18 93.4945 38.73 93.4945 38.19C93.4945 37.65 93.0445 37.2 92.5045 37.2C91.9645 37.2 91.5145 37.65 91.5145 38.19C91.5145 38.73 91.9645 39.18 92.5045 39.18ZM104.642 39V26.994H103.328L100.322 30.09L101.222 31.008L103.148 28.974V39H104.642ZM114.179 39V35.958H115.871V34.644H114.179V26.994H112.127L106.979 34.716V35.958H112.685V39H114.179ZM112.685 34.644H108.473L112.685 28.38V34.644ZM118.87 32.16C119.41 32.16 119.86 31.71 119.86 31.17C119.86 30.63 119.41 30.18 118.87 30.18C118.33 30.18 117.88 30.63 117.88 31.17C117.88 31.71 118.33 32.16 118.87 32.16ZM118.87 39.18C119.41 39.18 119.86 38.73 119.86 38.19C119.86 37.65 119.41 37.2 118.87 37.2C118.33 37.2 117.88 37.65 117.88 38.19C117.88 38.73 118.33 39.18 118.87 39.18ZM126.817 39.216C130.093 39.216 131.407 35.922 131.407 33.006C131.407 30.072 130.093 26.814 126.817 26.814C123.523 26.814 122.227 30.072 122.227 33.006C122.227 35.922 123.523 39.216 126.817 39.216ZM126.817 37.884C124.531 37.884 123.757 35.4 123.757 33.006C123.757 30.612 124.531 28.146 126.817 28.146C129.103 28.146 129.877 30.612 129.877 33.006C129.877 35.4 129.103 37.884 126.817 37.884ZM138.198 39.216C141.474 39.216 142.788 35.922 142.788 33.006C142.788 30.072 141.474 26.814 138.198 26.814C134.904 26.814 133.608 30.072 133.608 33.006C133.608 35.922 134.904 39.216 138.198 39.216ZM138.198 37.884C135.912 37.884 135.138 35.4 135.138 33.006C135.138 30.612 135.912 28.146 138.198 28.146C140.484 28.146 141.258 30.612 141.258 33.006C141.258 35.4 140.484 37.884 138.198 37.884ZM153.932 35.238V34.05H149.612V35.238H153.932ZM164.527 39V26.994H163.213L160.207 30.09L161.107 31.008L163.033 28.974V39H164.527ZM171.833 39.216C174.461 39.216 176.045 37.38 176.045 35.292C176.045 32.736 174.281 31.458 172.121 31.458C170.573 31.458 169.241 32.502 168.719 33.33C168.701 33.168 168.701 33.024 168.701 32.862C168.701 30.504 169.763 28.146 172.085 28.146C173.345 28.146 174.047 28.65 174.659 29.37L175.415 28.254C174.677 27.408 173.633 26.814 172.085 26.814C168.719 26.814 167.207 29.766 167.207 33.024C167.207 36.282 168.485 39.216 171.833 39.216ZM171.779 37.884C169.691 37.884 168.899 36.048 168.755 34.554C169.421 33.492 170.573 32.754 171.761 32.754C173.309 32.754 174.533 33.582 174.533 35.346C174.533 36.498 173.633 37.884 171.779 37.884ZM179.354 32.16C179.894 32.16 180.344 31.71 180.344 31.17C180.344 30.63 179.894 30.18 179.354 30.18C178.814 30.18 178.364 30.63 178.364 31.17C178.364 31.71 178.814 32.16 179.354 32.16ZM179.354 39.18C179.894 39.18 180.344 38.73 180.344 38.19C180.344 37.65 179.894 37.2 179.354 37.2C178.814 37.2 178.364 37.65 178.364 38.19C178.364 38.73 178.814 39.18 179.354 39.18ZM187.3 39.216C190.576 39.216 191.89 35.922 191.89 33.006C191.89 30.072 190.576 26.814 187.3 26.814C184.006 26.814 182.71 30.072 182.71 33.006C182.71 35.922 184.006 39.216 187.3 39.216ZM187.3 37.884C185.014 37.884 184.24 35.4 184.24 33.006C184.24 30.612 185.014 28.146 187.3 28.146C189.586 28.146 190.36 30.612 190.36 33.006C190.36 35.4 189.586 37.884 187.3 37.884ZM198.682 39.216C201.958 39.216 203.272 35.922 203.272 33.006C203.272 30.072 201.958 26.814 198.682 26.814C195.388 26.814 194.092 30.072 194.092 33.006C194.092 35.922 195.388 39.216 198.682 39.216ZM198.682 37.884C196.396 37.884 195.622 35.4 195.622 33.006C195.622 30.612 196.396 28.146 198.682 28.146C200.968 28.146 201.742 30.612 201.742 33.006C201.742 35.4 200.968 37.884 198.682 37.884ZM221.76 39L225.18 26.994H223.524L220.878 37.002L218.124 26.994H216.882L214.128 37.002L211.464 26.994H209.808L213.228 39H214.848L217.494 29.316L220.14 39H221.76ZM228.704 39V26.994H227.21V39H228.704ZM237.349 39C239.545 39 240.823 37.686 240.823 35.76C240.823 34.32 239.761 33.006 238.483 32.808C239.581 32.574 240.589 31.566 240.589 30.054C240.589 28.254 239.311 26.994 237.223 26.994H231.877V39H237.349ZM236.971 32.196H233.371V28.326H236.971C238.321 28.326 239.041 29.19 239.041 30.27C239.041 31.368 238.321 32.196 236.971 32.196ZM237.043 37.668H233.371V33.528H237.043C238.519 33.528 239.275 34.5 239.275 35.598C239.275 36.876 238.447 37.668 237.043 37.668Z" fill="#4F4F4F"/>
<path d="M5.292 61.216C8.532 61.216 9.72 59.434 9.72 57.688C9.72 53.206 2.61 54.754 2.61 52.054C2.61 50.92 3.636 50.146 5.076 50.146C6.39 50.146 7.65 50.596 8.55 51.586L9.45 50.488C8.442 49.426 7.02 48.814 5.184 48.814C2.826 48.814 1.062 50.164 1.062 52.144C1.062 56.428 8.172 54.718 8.172 57.814C8.172 58.732 7.488 59.884 5.346 59.884C3.654 59.884 2.358 59.056 1.566 58.174L0.684 59.308C1.674 60.424 3.204 61.216 5.292 61.216ZM16.5409 61.216C18.8269 61.216 20.4109 59.452 20.4109 56.644C20.4109 53.818 18.8269 52.09 16.5409 52.09C15.3169 52.09 14.2369 52.72 13.6069 53.602V52.306H12.2569V64.312H13.6069V59.686C14.3089 60.658 15.3529 61.216 16.5409 61.216ZM16.1989 60.01C15.1369 60.01 14.0749 59.362 13.6069 58.606V54.682C14.0749 53.926 15.1369 53.296 16.1989 53.296C17.9449 53.296 18.9889 54.718 18.9889 56.644C18.9889 58.57 17.9449 60.01 16.1989 60.01ZM26.8417 61.216C28.2637 61.216 29.4337 60.748 30.2977 59.884L29.6497 59.002C28.9657 59.704 27.9577 60.1 26.9677 60.1C25.0957 60.1 23.9437 58.732 23.8357 57.094H30.8737V56.752C30.8737 54.142 29.3257 52.09 26.6977 52.09C24.2137 52.09 22.4137 54.124 22.4137 56.644C22.4137 59.362 24.2677 61.216 26.8417 61.216ZM29.5417 56.104H23.8357C23.9077 54.772 24.8257 53.206 26.6797 53.206C28.6597 53.206 29.5237 54.808 29.5417 56.104ZM40.2062 61V55.024C40.2062 52.918 38.6762 52.09 36.8402 52.09C35.4182 52.09 34.3022 52.558 33.3662 53.53L33.9962 54.466C34.7702 53.638 35.6162 53.26 36.6602 53.26C37.9202 53.26 38.8562 53.926 38.8562 55.096V56.662C38.1542 55.852 37.1642 55.474 35.9762 55.474C34.5002 55.474 32.9342 56.392 32.9342 58.336C32.9342 60.226 34.5002 61.216 35.9762 61.216C37.1462 61.216 38.1362 60.802 38.8562 60.01V61H40.2062ZM36.4622 60.244C35.2022 60.244 34.3202 59.452 34.3202 58.354C34.3202 57.238 35.2022 56.446 36.4622 56.446C37.4162 56.446 38.3342 56.806 38.8562 57.526V59.164C38.3342 59.884 37.4162 60.244 36.4622 60.244ZM50.9224 61L47.0524 56.248L50.9044 52.306H49.1944L44.6224 56.932V48.994H43.2724V61H44.6224V58.516L46.0624 57.094L49.1944 61H50.9224ZM56.7498 61.216C58.1718 61.216 59.3418 60.748 60.2058 59.884L59.5578 59.002C58.8738 59.704 57.8658 60.1 56.8758 60.1C55.0038 60.1 53.8518 58.732 53.7438 57.094H60.7818V56.752C60.7818 54.142 59.2338 52.09 56.6058 52.09C54.1218 52.09 52.3218 54.124 52.3218 56.644C52.3218 59.362 54.1758 61.216 56.7498 61.216ZM59.4498 56.104H53.7438C53.8158 54.772 54.7338 53.206 56.5878 53.206C58.5678 53.206 59.4318 54.808 59.4498 56.104ZM64.6784 61V54.844C65.0744 54.142 66.2084 53.458 67.0364 53.458C67.2524 53.458 67.4144 53.476 67.5764 53.512V52.126C66.3884 52.126 65.3804 52.792 64.6784 53.71V52.306H63.3284V61H64.6784ZM72.3838 61.216C74.6338 61.216 75.8038 60.046 75.8038 58.588C75.8038 55.204 70.4218 56.464 70.4218 54.556C70.4218 53.782 71.1598 53.188 72.3478 53.188C73.4638 53.188 74.4178 53.656 74.9398 54.286L75.5698 53.35C74.8678 52.648 73.8238 52.09 72.3478 52.09C70.2778 52.09 69.1078 53.242 69.1078 54.592C69.1078 57.814 74.4898 56.518 74.4898 58.624C74.4898 59.488 73.7698 60.118 72.4378 60.118C71.2498 60.118 70.1518 59.542 69.5758 58.876L68.8738 59.848C69.7558 60.784 70.9618 61.216 72.3838 61.216ZM94.0788 54.16C94.6188 54.16 95.0688 53.71 95.0688 53.17C95.0688 52.63 94.6188 52.18 94.0788 52.18C93.5388 52.18 93.0888 52.63 93.0888 53.17C93.0888 53.71 93.5388 54.16 94.0788 54.16ZM94.0788 61.18C94.6188 61.18 95.0688 60.73 95.0688 60.19C95.0688 59.65 94.6188 59.2 94.0788 59.2C93.5388 59.2 93.0888 59.65 93.0888 60.19C93.0888 60.73 93.5388 61.18 94.0788 61.18ZM112.858 61V48.994H111.364V58.372L104.452 48.994H102.922V61H104.416V51.424L111.418 61H112.858ZM122.758 61V55.024C122.758 52.918 121.228 52.09 119.392 52.09C117.97 52.09 116.854 52.558 115.918 53.53L116.548 54.466C117.322 53.638 118.168 53.26 119.212 53.26C120.472 53.26 121.408 53.926 121.408 55.096V56.662C120.706 55.852 119.716 55.474 118.528 55.474C117.052 55.474 115.486 56.392 115.486 58.336C115.486 60.226 117.052 61.216 118.528 61.216C119.698 61.216 120.688 60.802 121.408 60.01V61H122.758ZM119.014 60.244C117.754 60.244 116.872 59.452 116.872 58.354C116.872 57.238 117.754 56.446 119.014 56.446C119.968 56.446 120.886 56.806 121.408 57.526V59.164C120.886 59.884 119.968 60.244 119.014 60.244ZM128.02 61.216C128.812 61.216 129.298 60.982 129.64 60.658L129.244 59.65C129.064 59.848 128.704 60.01 128.326 60.01C127.732 60.01 127.444 59.542 127.444 58.894V53.494H129.208V52.306H127.444V49.93H126.094V52.306H124.654V53.494H126.094V59.182C126.094 60.478 126.742 61.216 128.02 61.216ZM138.711 61V54.862C138.711 52.972 137.757 52.09 135.939 52.09C134.625 52.09 133.437 52.846 132.825 53.566V48.994H131.475V61H132.825V54.646C133.347 53.944 134.355 53.296 135.399 53.296C136.569 53.296 137.361 53.746 137.361 55.276V61H138.711ZM148.553 61V55.024C148.553 52.918 147.023 52.09 145.187 52.09C143.765 52.09 142.649 52.558 141.713 53.53L142.343 54.466C143.117 53.638 143.963 53.26 145.007 53.26C146.267 53.26 147.203 53.926 147.203 55.096V56.662C146.501 55.852 145.511 55.474 144.323 55.474C142.847 55.474 141.281 56.392 141.281 58.336C141.281 60.226 142.847 61.216 144.323 61.216C145.493 61.216 146.483 60.802 147.203 60.01V61H148.553ZM144.809 60.244C143.549 60.244 142.667 59.452 142.667 58.354C142.667 57.238 143.549 56.446 144.809 56.446C145.763 56.446 146.681 56.806 147.203 57.526V59.164C146.681 59.884 145.763 60.244 144.809 60.244ZM158.837 61V54.898C158.837 53.008 157.883 52.09 156.065 52.09C154.769 52.09 153.581 52.846 152.969 53.566V52.306H151.619V61H152.969V54.646C153.473 53.944 154.481 53.296 155.543 53.296C156.713 53.296 157.487 53.782 157.487 55.312V61H158.837ZM168.679 61V55.024C168.679 52.918 167.149 52.09 165.313 52.09C163.891 52.09 162.775 52.558 161.839 53.53L162.469 54.466C163.243 53.638 164.089 53.26 165.133 53.26C166.393 53.26 167.329 53.926 167.329 55.096V56.662C166.627 55.852 165.637 55.474 164.449 55.474C162.973 55.474 161.407 56.392 161.407 58.336C161.407 60.226 162.973 61.216 164.449 61.216C165.619 61.216 166.609 60.802 167.329 60.01V61H168.679ZM164.935 60.244C163.675 60.244 162.793 59.452 162.793 58.354C162.793 57.238 163.675 56.446 164.935 56.446C165.889 56.446 166.807 56.806 167.329 57.526V59.164C166.807 59.884 165.889 60.244 164.935 60.244ZM175.669 61.216C177.091 61.216 178.261 60.748 179.125 59.884L178.477 59.002C177.793 59.704 176.785 60.1 175.795 60.1C173.923 60.1 172.771 58.732 172.663 57.094H179.701V56.752C179.701 54.142 178.153 52.09 175.525 52.09C173.041 52.09 171.241 54.124 171.241 56.644C171.241 59.362 173.095 61.216 175.669 61.216ZM178.369 56.104H172.663C172.735 54.772 173.653 53.206 175.507 53.206C177.487 53.206 178.351 54.808 178.369 56.104ZM183.598 61V48.994H182.248V61H183.598ZM193.199 61V56.23H196.529C198.905 56.23 200.291 54.574 200.291 52.612C200.291 50.65 198.941 48.994 196.529 48.994H191.705V61H193.199ZM196.349 54.898H193.199V50.326H196.349C197.771 50.326 198.743 51.262 198.743 52.612C198.743 53.962 197.771 54.898 196.349 54.898ZM203.926 61V54.844C204.322 54.142 205.456 53.458 206.284 53.458C206.5 53.458 206.662 53.476 206.824 53.512V52.126C205.636 52.126 204.628 52.792 203.926 53.71V52.306H202.576V61H203.926ZM215.663 61V55.024C215.663 52.918 214.133 52.09 212.297 52.09C210.875 52.09 209.759 52.558 208.823 53.53L209.453 54.466C210.227 53.638 211.073 53.26 212.117 53.26C213.377 53.26 214.313 53.926 214.313 55.096V56.662C213.611 55.852 212.621 55.474 211.433 55.474C209.957 55.474 208.391 56.392 208.391 58.336C208.391 60.226 209.957 61.216 211.433 61.216C212.603 61.216 213.593 60.802 214.313 60.01V61H215.663ZM211.919 60.244C210.659 60.244 209.777 59.452 209.777 58.354C209.777 57.238 210.659 56.446 211.919 56.446C212.873 56.446 213.791 56.806 214.313 57.526V59.164C213.791 59.884 212.873 60.244 211.919 60.244ZM227.604 61L230.376 52.306H228.972L226.848 59.236L224.562 52.306H223.41L221.124 59.236L219 52.306H217.596L220.368 61H221.718L223.986 54.016L226.254 61H227.604ZM232.974 51.064C233.478 51.064 233.892 50.668 233.892 50.164C233.892 49.66 233.478 49.246 232.974 49.246C232.488 49.246 232.074 49.66 232.074 50.164C232.074 50.668 232.488 51.064 232.974 51.064ZM233.658 61V52.306H232.308V61H233.658ZM238.061 61V54.844C238.457 54.142 239.591 53.458 240.419 53.458C240.635 53.458 240.797 53.476 240.959 53.512V52.126C239.771 52.126 238.763 52.792 238.061 53.71V52.306H236.711V61H238.061ZM246.811 61.216C249.457 61.216 251.113 59.164 251.113 56.644C251.113 54.124 249.457 52.09 246.811 52.09C244.165 52.09 242.509 54.124 242.509 56.644C242.509 59.164 244.165 61.216 246.811 61.216ZM246.811 60.01C244.957 60.01 243.913 58.426 243.913 56.644C243.913 54.88 244.957 53.296 246.811 53.296C248.665 53.296 249.691 54.88 249.691 56.644C249.691 58.426 248.665 60.01 246.811 60.01ZM104.152 85.952C103 83.684 102.28 81.614 102.28 78.626C102.28 75.62 103 73.568 104.152 71.282L103.342 70.67C101.722 72.902 100.804 75.728 100.804 78.626C100.804 81.524 101.722 84.368 103.342 86.582L104.152 85.952ZM114.107 83V81.668H107.735V77.528H113.981V76.196H107.735V72.326H114.107V70.994H106.241V83H114.107ZM120.737 83.216C123.977 83.216 125.165 81.434 125.165 79.688C125.165 75.206 118.055 76.754 118.055 74.054C118.055 72.92 119.081 72.146 120.521 72.146C121.835 72.146 123.095 72.596 123.995 73.586L124.895 72.488C123.887 71.426 122.465 70.814 120.629 70.814C118.271 70.814 116.507 72.164 116.507 74.144C116.507 78.428 123.617 76.718 123.617 79.814C123.617 80.732 122.933 81.884 120.791 81.884C119.099 81.884 117.803 81.056 117.011 80.174L116.129 81.308C117.119 82.424 118.649 83.216 120.737 83.216ZM131.644 83.216C134.884 83.216 136.072 81.434 136.072 79.688C136.072 75.206 128.962 76.754 128.962 74.054C128.962 72.92 129.988 72.146 131.428 72.146C132.742 72.146 134.002 72.596 134.902 73.586L135.802 72.488C134.794 71.426 133.372 70.814 131.536 70.814C129.178 70.814 127.414 72.164 127.414 74.144C127.414 78.428 134.524 76.718 134.524 79.814C134.524 80.732 133.84 81.884 131.698 81.884C130.006 81.884 128.71 81.056 127.918 80.174L127.036 81.308C128.026 82.424 129.556 83.216 131.644 83.216ZM146.529 83V81.668H140.157V77.528H146.403V76.196H140.157V72.326H146.529V70.994H138.663V83H146.529ZM159.96 83.216C162.084 83.216 163.524 82.208 164.532 80.84L163.254 80.138C162.57 81.164 161.328 81.884 159.96 81.884C157.332 81.884 155.334 79.85 155.334 77.006C155.334 74.144 157.332 72.128 159.96 72.128C161.328 72.128 162.57 72.866 163.254 73.874L164.514 73.172C163.56 71.822 162.084 70.796 159.96 70.796C156.504 70.796 153.786 73.316 153.786 77.006C153.786 80.696 156.504 83.216 159.96 83.216ZM173.978 83V76.862C173.978 74.972 173.024 74.09 171.206 74.09C169.892 74.09 168.704 74.846 168.092 75.566V70.994H166.742V83H168.092V76.646C168.614 75.944 169.622 75.296 170.666 75.296C171.836 75.296 172.628 75.746 172.628 77.276V83H173.978ZM183.82 83V77.024C183.82 74.918 182.29 74.09 180.454 74.09C179.032 74.09 177.916 74.558 176.98 75.53L177.61 76.466C178.384 75.638 179.23 75.26 180.274 75.26C181.534 75.26 182.47 75.926 182.47 77.096V78.662C181.768 77.852 180.778 77.474 179.59 77.474C178.114 77.474 176.548 78.392 176.548 80.336C176.548 82.226 178.114 83.216 179.59 83.216C180.76 83.216 181.75 82.802 182.47 82.01V83H183.82ZM180.076 82.244C178.816 82.244 177.934 81.452 177.934 80.354C177.934 79.238 178.816 78.446 180.076 78.446C181.03 78.446 181.948 78.806 182.47 79.526V81.164C181.948 81.884 181.03 82.244 180.076 82.244ZM194.104 83V76.898C194.104 75.008 193.15 74.09 191.332 74.09C190.036 74.09 188.848 74.846 188.236 75.566V74.306H186.886V83H188.236V76.646C188.74 75.944 189.748 75.296 190.81 75.296C191.98 75.296 192.754 75.782 192.754 77.312V83H194.104ZM200.652 86.528C202.776 86.528 204.792 85.628 204.792 82.748V74.306H203.442V75.62C202.74 74.666 201.696 74.09 200.526 74.09C198.24 74.09 196.656 75.818 196.656 78.608C196.656 81.416 198.258 83.108 200.526 83.108C201.75 83.108 202.812 82.442 203.442 81.56V82.802C203.442 84.71 202.092 85.412 200.652 85.412C199.41 85.412 198.546 85.088 197.826 84.224L197.142 85.232C198.168 86.24 199.176 86.528 200.652 86.528ZM200.85 81.92C199.104 81.92 198.06 80.516 198.06 78.608C198.06 76.682 199.104 75.296 200.85 75.296C201.93 75.296 202.974 75.944 203.442 76.7V80.498C202.974 81.254 201.93 81.92 200.85 81.92ZM211.78 83.216C213.202 83.216 214.372 82.748 215.236 81.884L214.588 81.002C213.904 81.704 212.896 82.1 211.906 82.1C210.034 82.1 208.882 80.732 208.774 79.094H215.812V78.752C215.812 76.142 214.264 74.09 211.636 74.09C209.152 74.09 207.352 76.124 207.352 78.644C207.352 81.362 209.206 83.216 211.78 83.216ZM214.48 78.104H208.774C208.846 76.772 209.764 75.206 211.618 75.206C213.598 75.206 214.462 76.808 214.48 78.104ZM228.885 83C231.081 83 232.359 81.686 232.359 79.76C232.359 78.32 231.297 77.006 230.019 76.808C231.117 76.574 232.125 75.566 232.125 74.054C232.125 72.254 230.847 70.994 228.759 70.994H223.413V83H228.885ZM228.507 76.196H224.907V72.326H228.507C229.857 72.326 230.577 73.19 230.577 74.27C230.577 75.368 229.857 76.196 228.507 76.196ZM228.579 81.668H224.907V77.528H228.579C230.055 77.528 230.811 78.5 230.811 79.598C230.811 80.876 229.983 81.668 228.579 81.668ZM236.389 83V76.844C236.785 76.142 237.919 75.458 238.747 75.458C238.963 75.458 239.125 75.476 239.287 75.512V74.126C238.099 74.126 237.091 74.792 236.389 75.71V74.306H235.039V83H236.389ZM248.127 83V77.024C248.127 74.918 246.597 74.09 244.761 74.09C243.339 74.09 242.223 74.558 241.287 75.53L241.917 76.466C242.691 75.638 243.537 75.26 244.581 75.26C245.841 75.26 246.777 75.926 246.777 77.096V78.662C246.075 77.852 245.085 77.474 243.897 77.474C242.421 77.474 240.855 78.392 240.855 80.336C240.855 82.226 242.421 83.216 243.897 83.216C245.067 83.216 246.057 82.802 246.777 82.01V83H248.127ZM244.383 82.244C243.123 82.244 242.241 81.452 242.241 80.354C242.241 79.238 243.123 78.446 244.383 78.446C245.337 78.446 246.255 78.806 246.777 79.526V81.164C246.255 81.884 245.337 82.244 244.383 82.244ZM258.411 83V76.898C258.411 75.008 257.457 74.09 255.639 74.09C254.343 74.09 253.155 74.846 252.543 75.566V74.306H251.193V83H252.543V76.646C253.047 75.944 254.055 75.296 255.117 75.296C256.287 75.296 257.061 75.782 257.061 77.312V83H258.411ZM269.117 83V70.994H267.767V75.62C267.065 74.666 266.003 74.09 264.833 74.09C262.547 74.09 260.963 75.89 260.963 78.662C260.963 81.488 262.565 83.216 264.833 83.216C266.057 83.216 267.119 82.586 267.767 81.704V83H269.117ZM265.157 82.01C263.411 82.01 262.367 80.588 262.367 78.662C262.367 76.736 263.411 75.296 265.157 75.296C266.237 75.296 267.281 75.944 267.767 76.7V80.642C267.281 81.398 266.237 82.01 265.157 82.01ZM288.989 83V70.994H286.847L283.103 80.03L279.377 70.994H277.235V83H278.729V73.118L282.797 83H283.409L287.495 73.118V83H288.989ZM298.882 83V77.024C298.882 74.918 297.352 74.09 295.516 74.09C294.094 74.09 292.978 74.558 292.042 75.53L292.672 76.466C293.446 75.638 294.292 75.26 295.336 75.26C296.596 75.26 297.532 75.926 297.532 77.096V78.662C296.83 77.852 295.84 77.474 294.652 77.474C293.176 77.474 291.61 78.392 291.61 80.336C291.61 82.226 293.176 83.216 294.652 83.216C295.822 83.216 296.812 82.802 297.532 82.01V83H298.882ZM295.138 82.244C293.878 82.244 292.996 81.452 292.996 80.354C292.996 79.238 293.878 78.446 295.138 78.446C296.092 78.446 297.01 78.806 297.532 79.526V81.164C297.01 81.884 296.092 82.244 295.138 82.244ZM309.166 83V76.898C309.166 75.008 308.212 74.09 306.394 74.09C305.098 74.09 303.91 74.846 303.298 75.566V74.306H301.948V83H303.298V76.646C303.802 75.944 304.81 75.296 305.872 75.296C307.042 75.296 307.816 75.782 307.816 77.312V83H309.166ZM319.008 83V77.024C319.008 74.918 317.478 74.09 315.642 74.09C314.22 74.09 313.104 74.558 312.168 75.53L312.798 76.466C313.572 75.638 314.418 75.26 315.462 75.26C316.722 75.26 317.658 75.926 317.658 77.096V78.662C316.956 77.852 315.966 77.474 314.778 77.474C313.302 77.474 311.736 78.392 311.736 80.336C311.736 82.226 313.302 83.216 314.778 83.216C315.948 83.216 316.938 82.802 317.658 82.01V83H319.008ZM315.264 82.244C314.004 82.244 313.122 81.452 313.122 80.354C313.122 79.238 314.004 78.446 315.264 78.446C316.218 78.446 317.136 78.806 317.658 79.526V81.164C317.136 81.884 316.218 82.244 315.264 82.244ZM325.566 86.528C327.69 86.528 329.706 85.628 329.706 82.748V74.306H328.356V75.62C327.654 74.666 326.61 74.09 325.44 74.09C323.154 74.09 321.57 75.818 321.57 78.608C321.57 81.416 323.172 83.108 325.44 83.108C326.664 83.108 327.726 82.442 328.356 81.56V82.802C328.356 84.71 327.006 85.412 325.566 85.412C324.324 85.412 323.46 85.088 322.74 84.224L322.056 85.232C323.082 86.24 324.09 86.528 325.566 86.528ZM325.764 81.92C324.018 81.92 322.974 80.516 322.974 78.608C322.974 76.682 324.018 75.296 325.764 75.296C326.844 75.296 327.888 75.944 328.356 76.7V80.498C327.888 81.254 326.844 81.92 325.764 81.92ZM336.694 83.216C338.116 83.216 339.286 82.748 340.15 81.884L339.502 81.002C338.818 81.704 337.81 82.1 336.82 82.1C334.948 82.1 333.796 80.732 333.688 79.094H340.726V78.752C340.726 76.142 339.178 74.09 336.55 74.09C334.066 74.09 332.266 76.124 332.266 78.644C332.266 81.362 334.12 83.216 336.694 83.216ZM339.394 78.104H333.688C333.76 76.772 334.678 75.206 336.532 75.206C338.512 75.206 339.376 76.808 339.394 78.104ZM344.623 83V76.844C345.019 76.142 346.153 75.458 346.981 75.458C347.197 75.458 347.359 75.476 347.521 75.512V74.126C346.333 74.126 345.325 74.792 344.623 75.71V74.306H343.273V83H344.623ZM349.34 86.582C350.978 84.368 351.896 81.524 351.896 78.626C351.896 75.728 350.978 72.902 349.34 70.67L348.53 71.282C349.7 73.568 350.42 75.62 350.42 78.626C350.42 81.614 349.7 83.684 348.53 85.952L349.34 86.582ZM113.17 105V92.994H111.028L107.284 102.03L103.558 92.994H101.416V105H102.91V95.118L106.978 105H107.59L111.676 95.118V105H113.17ZM123.495 105V96.306H122.145V102.696C121.641 103.398 120.633 104.01 119.571 104.01C118.401 104.01 117.627 103.56 117.627 102.03V96.306H116.277V102.444C116.277 104.334 117.231 105.216 119.049 105.216C120.345 105.216 121.479 104.532 122.145 103.776V105H123.495ZM134.201 105L130.331 100.248L134.183 96.306H132.473L127.901 100.932V92.994H126.551V105H127.901V102.516L129.341 101.094L132.473 105H134.201ZM137.507 105V92.994H136.157V105H137.507ZM147.346 105V99.024C147.346 96.918 145.816 96.09 143.98 96.09C142.558 96.09 141.442 96.558 140.506 97.53L141.136 98.466C141.91 97.638 142.756 97.26 143.8 97.26C145.06 97.26 145.996 97.926 145.996 99.096V100.662C145.294 99.852 144.304 99.474 143.116 99.474C141.64 99.474 140.074 100.392 140.074 102.336C140.074 104.226 141.64 105.216 143.116 105.216C144.286 105.216 145.276 104.802 145.996 104.01V105H147.346ZM143.602 104.244C142.342 104.244 141.46 103.452 141.46 102.354C141.46 101.238 142.342 100.446 143.602 100.446C144.556 100.446 145.474 100.806 145.996 101.526V103.164C145.474 103.884 144.556 104.244 143.602 104.244ZM149.927 108.402C150.179 108.474 150.629 108.528 150.917 108.528C152.069 108.51 152.951 108.024 153.473 106.764L157.829 96.306H156.353L153.473 103.434L150.575 96.306H149.117L152.753 105.09L152.177 106.404C151.871 107.124 151.475 107.322 150.881 107.322C150.665 107.322 150.341 107.268 150.143 107.178L149.927 108.402ZM113.17 127V114.994H111.028L107.284 124.03L103.558 114.994H101.416V127H102.91V117.118L106.978 127H107.59L111.676 117.118V127H113.17ZM123.063 127V121.024C123.063 118.918 121.533 118.09 119.697 118.09C118.275 118.09 117.159 118.558 116.223 119.53L116.853 120.466C117.627 119.638 118.473 119.26 119.517 119.26C120.777 119.26 121.713 119.926 121.713 121.096V122.662C121.011 121.852 120.021 121.474 118.833 121.474C117.357 121.474 115.791 122.392 115.791 124.336C115.791 126.226 117.357 127.216 118.833 127.216C120.003 127.216 120.993 126.802 121.713 126.01V127H123.063ZM119.319 126.244C118.059 126.244 117.177 125.452 117.177 124.354C117.177 123.238 118.059 122.446 119.319 122.446C120.273 122.446 121.191 122.806 121.713 123.526V125.164C121.191 125.884 120.273 126.244 119.319 126.244ZM133.347 127V120.898C133.347 119.008 132.393 118.09 130.575 118.09C129.279 118.09 128.091 118.846 127.479 119.566V118.306H126.129V127H127.479V120.646C127.983 119.944 128.991 119.296 130.053 119.296C131.223 119.296 131.997 119.782 131.997 121.312V127H133.347ZM144.053 127V114.994H142.703V119.62C142.001 118.666 140.939 118.09 139.769 118.09C137.483 118.09 135.899 119.89 135.899 122.662C135.899 125.488 137.501 127.216 139.769 127.216C140.993 127.216 142.055 126.586 142.703 125.704V127H144.053ZM140.093 126.01C138.347 126.01 137.303 124.588 137.303 122.662C137.303 120.736 138.347 119.296 140.093 119.296C141.173 119.296 142.217 119.944 142.703 120.7V124.642C142.217 125.398 141.173 126.01 140.093 126.01ZM146.631 130.402C146.883 130.474 147.333 130.528 147.621 130.528C148.773 130.51 149.655 130.024 150.177 128.764L154.533 118.306H153.057L150.177 125.434L147.279 118.306H145.821L149.457 127.09L148.881 128.404C148.575 129.124 148.179 129.322 147.585 129.322C147.369 129.322 147.045 129.268 146.847 129.178L146.631 130.402ZM167.044 127.216C169.168 127.216 170.608 126.208 171.616 124.84L170.338 124.138C169.654 125.164 168.412 125.884 167.044 125.884C164.416 125.884 162.418 123.85 162.418 121.006C162.418 118.144 164.416 116.128 167.044 116.128C168.412 116.128 169.654 116.866 170.338 117.874L171.598 117.172C170.644 115.822 169.168 114.796 167.044 114.796C163.588 114.796 160.87 117.316 160.87 121.006C160.87 124.696 163.588 127.216 167.044 127.216ZM175.806 127.216C177.948 127.216 179.622 125.992 179.622 123.382V114.994H178.128V123.364C178.128 124.858 177.192 125.884 175.716 125.884C174.672 125.884 173.97 125.326 173.448 124.696L172.674 125.83C173.502 126.802 174.528 127.216 175.806 127.216Z" fill="#4F4F4F"/>
</svg>
