<svg width="54" height="54" viewBox="0 0 54 54" fill="none" xmlns="http://www.w3.org/2000/svg">
<circle cx="27" cy="27" r="25.5" stroke="black" stroke-width="3"/>
<path d="M16.8275 34C16.6942 34 16.5742 33.9533 16.4675 33.86C16.3742 33.7533 16.3275 33.6333 16.3275 33.5V23.98L13.5875 26.08C13.4942 26.16 13.3942 26.2 13.2875 26.2C13.1408 26.2 13.0075 26.12 12.8875 25.96L11.7075 24.42C11.6408 24.3133 11.6075 24.2133 11.6075 24.12C11.6075 23.9333 11.6875 23.7933 11.8475 23.7L16.4475 20.14C16.5942 20.0467 16.7542 20 16.9275 20H19.4275C19.5742 20 19.6942 20.0467 19.7875 20.14C19.8808 20.2333 19.9275 20.3533 19.9275 20.5V33.5C19.9275 33.6333 19.8808 33.7533 19.7875 33.86C19.6942 33.9533 19.5742 34 19.4275 34H16.8275ZM28.3889 34.2C27.1089 34.2 26.0289 34.0067 25.1489 33.62C24.2689 33.2333 23.6089 32.7067 23.1689 32.04C22.7422 31.3733 22.5289 30.6267 22.5289 29.8C22.5289 29.0933 22.7022 28.46 23.0489 27.9C23.4089 27.3267 23.8822 26.88 24.4689 26.56C24.0022 26.2533 23.6422 25.8667 23.3889 25.4C23.1489 24.9333 23.0289 24.4 23.0289 23.8C23.0289 23.04 23.2222 22.36 23.6089 21.76C24.0089 21.1467 24.6089 20.6667 25.4089 20.32C26.2089 19.9733 27.2022 19.8 28.3889 19.8C30.1356 19.8 31.4556 20.1667 32.3489 20.9C33.2556 21.6333 33.7089 22.5933 33.7089 23.78C33.7089 24.9933 33.2422 25.92 32.3089 26.56C32.9089 26.8533 33.3822 27.2867 33.7289 27.86C34.0889 28.4333 34.2689 29.0867 34.2689 29.82C34.2689 30.6467 34.0489 31.3933 33.6089 32.06C33.1689 32.7133 32.5022 33.2333 31.6089 33.62C30.7289 34.0067 29.6556 34.2 28.3889 34.2ZM28.3889 25.56C28.9756 25.5467 29.4556 25.3933 29.8289 25.1C30.2022 24.8067 30.3889 24.4267 30.3889 23.96C30.3889 23.48 30.2022 23.0933 29.8289 22.8C29.4556 22.5067 28.9756 22.36 28.3889 22.36C27.8022 22.36 27.3222 22.5067 26.9489 22.8C26.5756 23.0933 26.3889 23.48 26.3889 23.96C26.3889 24.44 26.5756 24.8267 26.9489 25.12C27.3222 25.4133 27.8022 25.56 28.3889 25.56ZM28.3889 31.64C29.0422 31.64 29.5822 31.4733 30.0089 31.14C30.4356 30.8067 30.6489 30.36 30.6489 29.8C30.6489 29.24 30.4356 28.8 30.0089 28.48C29.5822 28.1467 29.0422 27.98 28.3889 27.98C27.7356 27.98 27.1889 28.1467 26.7489 28.48C26.3222 28.8 26.1089 29.24 26.1089 29.8C26.1089 30.36 26.3222 30.8067 26.7489 31.14C27.1889 31.4733 27.7356 31.64 28.3889 31.64ZM40.8241 33.34C40.6907 33.34 40.5707 33.2933 40.4641 33.2C40.3707 33.0933 40.3241 32.9733 40.3241 32.84V29.18H36.7641C36.6174 29.18 36.4907 29.1333 36.3841 29.04C36.2907 28.9467 36.2441 28.8267 36.2441 28.68V27.22C36.2441 27.0733 36.2907 26.9533 36.3841 26.86C36.4907 26.7533 36.6174 26.7 36.7641 26.7H40.3241V23.16C40.3241 23.0133 40.3707 22.8933 40.4641 22.8C40.5707 22.7067 40.6907 22.66 40.8241 22.66H42.4641C42.6107 22.66 42.7307 22.7067 42.8241 22.8C42.9174 22.8933 42.9641 23.0133 42.9641 23.16V26.7H46.5041C46.6507 26.7 46.7707 26.7533 46.8641 26.86C46.9574 26.9533 47.0041 27.0733 47.0041 27.22V28.68C47.0041 28.8267 46.9574 28.9467 46.8641 29.04C46.7707 29.1333 46.6507 29.18 46.5041 29.18H42.9641V32.84C42.9641 32.9733 42.9174 33.0933 42.8241 33.2C42.7307 33.2933 42.6107 33.34 42.4641 33.34H40.8241Z" fill="black"/>
</svg>
