<svg width="710" height="42" viewBox="0 0 710 42" fill="none" xmlns="http://www.w3.org/2000/svg">
<path d="M3.48773 14V9.26H6.88773C9.76773 9.26 11.3677 7.28 11.3677 4.96C11.3677 2.62 9.78773 0.659999 6.88773 0.659999H0.647728V14H3.48773ZM6.50773 6.76H3.48773V3.16H6.50773C7.62773 3.16 8.46773 3.84 8.46773 4.96C8.46773 6.06 7.62773 6.76 6.50773 6.76ZM22.9682 14V11.5H16.3682V8.48H22.8282V5.98H16.3682V3.16H22.9682V0.659999H13.5282V14H22.9682ZM36.3884 14L33.3884 8.92C34.8284 8.58 36.3084 7.32 36.3084 4.96C36.3084 2.48 34.6084 0.659999 31.8284 0.659999H25.5884V14H28.4284V9.26H30.5084L33.1284 14H36.3884ZM31.4084 6.76H28.4284V3.16H31.4084C32.5484 3.16 33.4084 3.84 33.4084 4.96C33.4084 6.08 32.5484 6.76 31.4084 6.76ZM41.6799 14V0.659999H38.8399V14H41.6799ZM56.6682 14V0.659999H53.8282V9.04L47.6482 0.659999H44.7282V14H47.5682V5.3L53.9282 14H56.6682ZM66.1585 14.26C68.5785 14.26 70.4785 13.26 71.8385 11.74V6.62H65.4785V9.1H68.9985V10.7C68.4585 11.2 67.3385 11.72 66.1585 11.72C63.7385 11.72 61.9785 9.86 61.9785 7.34C61.9785 4.82 63.7385 2.96 66.1585 2.96C67.5785 2.96 68.7185 3.76 69.3185 4.7L71.6785 3.42C70.6785 1.84 68.9385 0.439999 66.1585 0.439999C62.2585 0.439999 59.0585 3.12 59.0585 7.34C59.0585 11.54 62.2585 14.26 66.1585 14.26ZM86.7963 14L81.6563 0.659999H78.0963L72.9363 14H76.1763L77.0163 11.74H82.7363L83.5563 14H86.7963ZM81.9563 9.24H77.7963L79.8763 3.5L81.9563 9.24ZM93.0791 14V3.16H96.9591V0.659999H86.3191V3.16H90.2191V14H93.0791ZM110.331 14L105.191 0.659999H101.631L96.4707 14H99.7107L100.551 11.74H106.271L107.091 14H110.331ZM105.491 9.24H101.331L103.411 3.5L105.491 9.24ZM123.903 14V0.659999H121.063V9.04L114.883 0.659999H111.963V14H114.803V5.3L121.163 14H123.903ZM128.173 7.44C129.053 7.44 129.793 6.7 129.793 5.82C129.793 4.94 129.053 4.2 128.173 4.2C127.293 4.2 126.553 4.94 126.553 5.82C126.553 6.7 127.293 7.44 128.173 7.44ZM128.173 14.22C129.053 14.22 129.793 13.48 129.793 12.6C129.793 11.72 129.053 10.98 128.173 10.98C127.293 10.98 126.553 11.72 126.553 12.6C126.553 13.48 127.293 14.22 128.173 14.22ZM148.269 14L142.229 7L147.789 0.659999H145.709L139.809 7.56V0.659999H138.149V14H139.809V9.52L141.149 8L146.209 14H148.269ZM161.98 14L156.6 0.659999H154.54L149.18 14H151.08L152.26 11.04H158.9L160.08 14H161.98ZM158.4 9.56H152.74L155.58 2.38L158.4 9.56ZM173.804 14L170.204 8.56C172.024 8.4 173.664 7.08 173.664 4.68C173.664 2.22 171.924 0.659999 169.484 0.659999H164.124V14H165.784V8.7H168.444L171.844 14H173.804ZM169.284 7.24H165.784V2.14H169.284C170.864 2.14 171.944 3.18 171.944 4.68C171.944 6.18 170.864 7.24 169.284 7.24ZM185.432 14V12.52H178.352V7.92H185.292V6.44H178.352V2.14H185.432V0.659999H176.692V14H185.432ZM199.519 14V0.659999H197.859V11.08L190.179 0.659999H188.479V14H190.139V3.36L197.919 14H199.519ZM214.459 14L209.079 0.659999H207.019L201.659 14H203.559L204.739 11.04H211.379L212.559 14H214.459ZM210.879 9.56H205.219L208.059 2.38L210.879 9.56ZM235.22 14V0.659999H232.84L228.68 10.7L224.54 0.659999H222.16V14H223.82V3.02L228.34 14H229.02L233.56 3.02V14H235.22ZM247.471 14V12.52H240.391V7.92H247.331V6.44H240.391V2.14H247.471V0.659999H238.731V14H247.471ZM260.198 14L256.598 8.56C258.418 8.4 260.058 7.08 260.058 4.68C260.058 2.22 258.318 0.659999 255.878 0.659999H250.518V14H252.178V8.7H254.838L258.238 14H260.198ZM255.678 7.24H252.178V2.14H255.678C257.258 2.14 258.338 3.18 258.338 4.68C258.338 6.18 257.258 7.24 255.678 7.24ZM269.166 14.24C273.106 14.24 275.786 11.28 275.786 7.34C275.786 3.4 273.106 0.439999 269.166 0.439999C265.206 0.439999 262.546 3.4 262.546 7.34C262.546 11.28 265.206 14.24 269.166 14.24ZM269.166 12.76C266.166 12.76 264.266 10.44 264.266 7.34C264.266 4.22 266.166 1.92 269.166 1.92C272.146 1.92 274.066 4.22 274.066 7.34C274.066 10.44 272.146 12.76 269.166 12.76ZM288.899 14L282.859 7L288.419 0.659999H286.339L280.439 7.56V0.659999H278.779V14H280.439V9.52L281.779 8L286.839 14H288.899ZM296.197 14.24C300.137 14.24 302.817 11.28 302.817 7.34C302.817 3.4 300.137 0.439999 296.197 0.439999C292.237 0.439999 289.577 3.4 289.577 7.34C289.577 11.28 292.237 14.24 296.197 14.24ZM296.197 12.76C293.197 12.76 291.297 10.44 291.297 7.34C291.297 4.22 293.197 1.92 296.197 1.92C299.177 1.92 301.097 4.22 301.097 7.34C301.097 10.44 299.177 12.76 296.197 12.76ZM315.93 14L309.89 7L315.45 0.659999H313.37L307.47 7.56V0.659999H305.81V14H307.47V9.52L308.81 8L313.87 14H315.93ZM320.181 13.52C320.181 12.56 319.581 12 318.921 12C318.321 12 317.861 12.5 317.861 13.08C317.861 13.68 318.261 14.1 318.821 14.1C318.921 14.1 319.061 14.08 319.101 14.06C319.021 14.72 318.441 15.5 317.801 15.92L318.541 16.54C319.461 15.88 320.181 14.74 320.181 13.52ZM333.107 14.24C336.707 14.24 338.027 12.26 338.027 10.32C338.027 5.34 330.127 7.06 330.127 4.06C330.127 2.8 331.267 1.94 332.867 1.94C334.327 1.94 335.727 2.44 336.727 3.54L337.727 2.32C336.607 1.14 335.027 0.459999 332.987 0.459999C330.367 0.459999 328.407 1.96 328.407 4.16C328.407 8.92 336.307 7.02 336.307 10.46C336.307 11.48 335.547 12.76 333.167 12.76C331.287 12.76 329.847 11.84 328.967 10.86L327.987 12.12C329.087 13.36 330.787 14.24 333.107 14.24ZM352.13 14L346.75 0.659999H344.69L339.33 14H341.23L342.41 11.04H349.05L350.23 14H352.13ZM348.55 9.56H342.89L345.73 2.38L348.55 9.56ZM358.545 14V8.36L363.785 0.659999H361.845L357.705 6.86L353.565 0.659999H351.625L356.885 8.36V14H358.545ZM376.075 14L370.695 0.659999H368.635L363.275 14H365.175L366.355 11.04H372.995L374.175 14H376.075ZM372.495 9.56H366.835L369.675 2.38L372.495 9.56ZM388.735 14V2.14H392.975V0.659999H382.855V2.14H387.075V14H388.735ZM404.321 14V12.52H397.241V7.92H404.181V6.44H397.241V2.14H404.321V0.659999H395.581V14H404.321ZM417.048 14L413.448 8.56C415.268 8.4 416.908 7.08 416.908 4.68C416.908 2.22 415.168 0.659999 412.728 0.659999H407.368V14H409.028V8.7H411.688L415.088 14H417.048ZM412.528 7.24H409.028V2.14H412.528C414.108 2.14 415.188 3.18 415.188 4.68C415.188 6.18 414.108 7.24 412.528 7.24ZM430.056 14L424.016 7L429.576 0.659999H427.496L421.596 7.56V0.659999H419.936V14H421.596V9.52L422.936 8L427.996 14H430.056ZM441.088 14V12.52H434.008V7.92H440.948V6.44H434.008V2.14H441.088V0.659999H432.348V14H441.088ZM455.175 14V0.659999H453.515V11.08L445.835 0.659999H444.135V14H445.795V3.36L453.575 14H455.175ZM470.115 14L464.735 0.659999H462.675L457.315 14H459.215L460.395 11.04H467.035L468.215 14H470.115ZM466.535 9.56H460.875L463.715 2.38L466.535 9.56ZM487.935 14L481.895 7L487.455 0.659999H485.375L479.475 7.56V0.659999H477.815V14H479.475V9.52L480.815 8L485.875 14H487.935ZM501.647 14L496.267 0.659999H494.207L488.847 14H490.747L491.927 11.04H498.567L499.747 14H501.647ZM498.067 9.56H492.407L495.247 2.38L498.067 9.56ZM514.831 14V0.659999H513.171V11.08L505.491 0.659999H503.791V14H505.451V3.36L513.231 14H514.831ZM528.471 14L522.431 7L527.991 0.659999H525.911L520.011 7.56V0.659999H518.351V14H520.011V9.52L521.351 8L526.411 14H528.471ZM539.503 14V12.52H532.423V7.92H539.363V6.44H532.423V2.14H539.503V0.659999H530.763V14H539.503ZM552.23 14L548.63 8.56C550.45 8.4 552.09 7.08 552.09 4.68C552.09 2.22 550.35 0.659999 547.91 0.659999H542.55V14H544.21V8.7H546.87L550.27 14H552.23ZM547.71 7.24H544.21V2.14H547.71C549.29 2.14 550.37 3.18 550.37 4.68C550.37 6.18 549.29 7.24 547.71 7.24ZM565.634 14V2.14H569.874V0.659999H559.754V2.14H563.974V14H565.634ZM581.22 14V12.52H574.14V7.92H581.08V6.44H574.14V2.14H581.22V0.659999H572.48V14H581.22ZM595.307 14V0.659999H593.647V11.08L585.967 0.659999H584.267V14H585.927V3.36L593.707 14H595.307ZM605.147 14.26C607.327 14.26 609.147 13.34 610.387 11.96V7.14H604.147V8.62H608.727V11.34C608.067 12 606.747 12.78 605.147 12.78C602.227 12.78 600.007 10.5 600.007 7.34C600.007 4.16 602.227 1.92 605.147 1.92C606.747 1.92 608.167 2.68 609.007 3.76L610.327 2.94C609.147 1.48 607.507 0.439999 605.147 0.439999C601.347 0.439999 598.287 3.2 598.287 7.34C598.287 11.48 601.347 14.26 605.147 14.26ZM619.805 14.26C621.985 14.26 623.805 13.34 625.045 11.96V7.14H618.805V8.62H623.385V11.34C622.725 12 621.405 12.78 619.805 12.78C616.885 12.78 614.665 10.5 614.665 7.34C614.665 4.16 616.885 1.92 619.805 1.92C621.405 1.92 622.825 2.68 623.665 3.76L624.985 2.94C623.805 1.48 622.165 0.439999 619.805 0.439999C616.005 0.439999 612.945 3.2 612.945 7.34C612.945 11.48 616.005 14.26 619.805 14.26ZM634.222 14.24C638.162 14.24 640.842 11.28 640.842 7.34C640.842 3.4 638.162 0.439999 634.222 0.439999C630.262 0.439999 627.602 3.4 627.602 7.34C627.602 11.28 630.262 14.24 634.222 14.24ZM634.222 12.76C631.222 12.76 629.322 10.44 629.322 7.34C629.322 4.22 631.222 1.92 634.222 1.92C637.202 1.92 639.122 4.22 639.122 7.34C639.122 10.44 637.202 12.76 634.222 12.76ZM653.515 14L649.915 8.56C651.735 8.4 653.375 7.08 653.375 4.68C653.375 2.22 651.635 0.659999 649.195 0.659999H643.835V14H645.495V8.7H648.155L651.555 14H653.515ZM648.995 7.24H645.495V2.14H648.995C650.575 2.14 651.655 3.18 651.655 4.68C651.655 6.18 650.575 7.24 648.995 7.24ZM662.483 14.24C666.423 14.24 669.103 11.28 669.103 7.34C669.103 3.4 666.423 0.439999 662.483 0.439999C658.523 0.439999 655.863 3.4 655.863 7.34C655.863 11.28 658.523 14.24 662.483 14.24ZM662.483 12.76C659.483 12.76 657.583 10.44 657.583 7.34C657.583 4.22 659.483 1.92 662.483 1.92C665.463 1.92 667.383 4.22 667.383 7.34C667.383 10.44 665.463 12.76 662.483 12.76ZM682.216 14L676.176 7L681.736 0.659999H679.656L673.756 7.56V0.659999H672.096V14H673.756V9.52L675.096 8L680.156 14H682.216ZM695.928 14L690.548 0.659999H688.488L683.128 14H685.028L686.208 11.04H692.848L694.028 14H695.928ZM692.348 9.56H686.688L689.528 2.38L692.348 9.56ZM709.112 14V0.659999H707.452V11.08L699.772 0.659999H698.072V14H699.732V3.36L707.512 14H709.112ZM139.774 38V36.52H133.574V24.66H131.914V38H139.774ZM153.93 38L148.55 24.66H146.49L141.13 38H143.03L144.21 35.04H150.85L152.03 38H153.93ZM150.35 33.56H144.69L147.53 26.38L150.35 33.56ZM160.344 38V32.36L165.584 24.66H163.644L159.504 30.86L155.364 24.66H153.424L158.684 32.36V38H160.344ZM177.874 38L172.494 24.66H170.434L165.074 38H166.974L168.154 35.04H174.794L175.974 38H177.874ZM174.294 33.56H168.634L171.474 26.38L174.294 33.56ZM191.058 38V24.66H189.398V35.08L181.718 24.66H180.018V38H181.678V27.36L189.458 38H191.058ZM205.998 38L200.618 24.66H198.558L193.198 38H195.098L196.278 35.04H202.918L204.098 38H205.998ZM202.418 33.56H196.758L199.598 26.38L202.418 33.56ZM219.182 38V24.66H217.522V35.08L209.842 24.66H208.142V38H209.802V27.36L217.582 38H219.182ZM234.339 38C236.779 38 238.199 36.54 238.199 34.4C238.199 32.8 237.019 31.34 235.599 31.12C236.819 30.86 237.939 29.74 237.939 28.06C237.939 26.06 236.519 24.66 234.199 24.66H228.259V38H234.339ZM233.919 30.44H229.919V26.14H233.919C235.419 26.14 236.219 27.1 236.219 28.3C236.219 29.52 235.419 30.44 233.919 30.44ZM233.999 36.52H229.919V31.92H233.999C235.639 31.92 236.479 33 236.479 34.22C236.479 35.64 235.559 36.52 233.999 36.52ZM249.977 38V36.52H242.897V31.92H249.837V30.44H242.897V26.14H249.977V24.66H241.237V38H249.977ZM262.704 38L259.104 32.56C260.924 32.4 262.564 31.08 262.564 28.68C262.564 26.22 260.824 24.66 258.384 24.66H253.024V38H254.684V32.7H257.344L260.744 38H262.704ZM258.184 31.24H254.684V26.14H258.184C259.764 26.14 260.844 27.18 260.844 28.68C260.844 30.18 259.764 31.24 258.184 31.24ZM276.712 38V24.66H275.052V30.4H267.252V24.66H265.592V38H267.252V31.88H275.052V38H276.712ZM288.97 38V36.52H281.89V31.92H288.83V30.44H281.89V26.14H288.97V24.66H280.23V38H288.97ZM303.057 38V24.66H301.397V35.08L293.717 24.66H292.017V38H293.677V27.36L301.457 38H303.057ZM311.537 38V26.14H315.777V24.66H305.657V26.14H309.877V38H311.537ZM320.043 38V24.66H318.383V38H320.043ZM342.184 38V24.66H339.804L335.644 34.7L331.504 24.66H329.124V38H330.784V27.02L335.304 38H335.984L340.524 27.02V38H342.184ZM354.436 38V36.52H347.356V31.92H354.296V30.44H347.356V26.14H354.436V24.66H345.696V38H354.436ZM367.163 38L363.563 32.56C365.383 32.4 367.023 31.08 367.023 28.68C367.023 26.22 365.283 24.66 362.843 24.66H357.483V38H359.143V32.7H361.803L365.203 38H367.163ZM362.643 31.24H359.143V26.14H362.643C364.223 26.14 365.303 27.18 365.303 28.68C365.303 30.18 364.223 31.24 362.643 31.24ZM376.131 38.24C380.071 38.24 382.751 35.28 382.751 31.34C382.751 27.4 380.071 24.44 376.131 24.44C372.171 24.44 369.511 27.4 369.511 31.34C369.511 35.28 372.171 38.24 376.131 38.24ZM376.131 36.76C373.131 36.76 371.231 34.44 371.231 31.34C371.231 28.22 373.131 25.92 376.131 25.92C379.111 25.92 381.031 28.22 381.031 31.34C381.031 34.44 379.111 36.76 376.131 36.76ZM395.864 38L389.824 31L395.384 24.66H393.304L387.404 31.56V24.66H385.744V38H387.404V33.52L388.744 32L393.804 38H395.864ZM403.161 38.24C407.101 38.24 409.781 35.28 409.781 31.34C409.781 27.4 407.101 24.44 403.161 24.44C399.201 24.44 396.541 27.4 396.541 31.34C396.541 35.28 399.201 38.24 403.161 38.24ZM403.161 36.76C400.161 36.76 398.261 34.44 398.261 31.34C398.261 28.22 400.161 25.92 403.161 25.92C406.141 25.92 408.061 28.22 408.061 31.34C408.061 34.44 406.141 36.76 403.161 36.76ZM422.894 38L416.854 31L422.414 24.66H420.334L414.434 31.56V24.66H412.774V38H414.434V33.52L415.774 32L420.834 38H422.894ZM433.782 41.28C432.502 38.76 431.702 36.46 431.702 33.14C431.702 29.8 432.502 27.52 433.782 24.98L432.882 24.3C431.082 26.78 430.062 29.92 430.062 33.14C430.062 36.36 431.082 39.52 432.882 41.98L433.782 41.28ZM440.663 38.24C444.303 38.24 445.763 34.58 445.763 31.34C445.763 28.08 444.303 24.46 440.663 24.46C437.003 24.46 435.563 28.08 435.563 31.34C435.563 34.58 437.003 38.24 440.663 38.24ZM440.663 36.76C438.123 36.76 437.263 34 437.263 31.34C437.263 28.68 438.123 25.94 440.663 25.94C443.203 25.94 444.063 28.68 444.063 31.34C444.063 34 443.203 36.76 440.663 36.76ZM453.009 38.24C455.629 38.24 457.789 36.88 457.789 34.62C457.789 32.84 456.269 31.62 454.609 31.12C456.149 30.68 457.589 29.68 457.589 27.92C457.589 25.52 455.209 24.46 453.009 24.46C450.789 24.46 448.449 25.52 448.449 27.92C448.449 29.68 449.869 30.68 451.409 31.12C449.749 31.62 448.229 32.84 448.229 34.62C448.229 36.9 450.369 38.24 453.009 38.24ZM453.009 30.44C452.209 30.3 450.109 29.76 450.109 28.14C450.109 26.76 451.389 25.94 453.009 25.94C454.609 25.94 455.909 26.76 455.909 28.14C455.909 29.76 453.829 30.3 453.009 30.44ZM453.009 36.76C451.349 36.76 449.889 35.88 449.889 34.44C449.889 32.7 452.189 31.96 453.009 31.86C453.829 31.96 456.109 32.7 456.109 34.44C456.109 35.88 454.649 36.76 453.009 36.76ZM465.331 38.24C468.971 38.24 470.431 34.58 470.431 31.34C470.431 28.08 468.971 24.46 465.331 24.46C461.671 24.46 460.231 28.08 460.231 31.34C460.231 34.58 461.671 38.24 465.331 38.24ZM465.331 36.76C462.791 36.76 461.931 34 461.931 31.34C461.931 28.68 462.791 25.94 465.331 25.94C467.871 25.94 468.731 28.68 468.731 31.34C468.731 34 467.871 36.76 465.331 36.76ZM477.977 38.24C481.617 38.24 483.077 34.58 483.077 31.34C483.077 28.08 481.617 24.46 477.977 24.46C474.317 24.46 472.877 28.08 472.877 31.34C472.877 34.58 474.317 38.24 477.977 38.24ZM477.977 36.76C475.437 36.76 474.577 34 474.577 31.34C474.577 28.68 475.437 25.94 477.977 25.94C480.517 25.94 481.377 28.68 481.377 31.34C481.377 34 480.517 36.76 477.977 36.76ZM489.903 33.82V32.5H485.103V33.82H489.903ZM496.119 38V24.66H494.659L491.319 28.1L492.319 29.12L494.459 26.86V38H496.119ZM502.336 38L507.796 25.8V24.66H498.696V26.14H505.876L500.496 38H502.336ZM513.029 38L518.489 25.8V24.66H509.389V26.14H516.569L511.189 38H513.029ZM524.862 33.82V32.5H520.062V33.82H524.862ZM532.018 38.24C534.938 38.24 536.698 36.2 536.698 33.88C536.698 31.04 534.738 29.62 532.338 29.62C530.618 29.62 529.138 30.78 528.558 31.7C528.538 31.52 528.538 31.36 528.538 31.18C528.538 28.56 529.718 25.94 532.298 25.94C533.698 25.94 534.478 26.5 535.158 27.3L535.998 26.06C535.178 25.12 534.018 24.46 532.298 24.46C528.558 24.46 526.878 27.74 526.878 31.36C526.878 34.98 528.298 38.24 532.018 38.24ZM531.958 36.76C529.638 36.76 528.758 34.72 528.598 33.06C529.338 31.88 530.618 31.06 531.938 31.06C533.658 31.06 535.018 31.98 535.018 33.94C535.018 35.22 534.018 36.76 531.958 36.76ZM544.095 38.24C546.775 38.24 548.835 36.56 548.835 33.84C548.835 31.1 546.815 29.58 544.595 29.58C543.255 29.58 542.115 30.14 541.475 30.78V26.14H547.975V24.66H539.815V31.86L541.035 32.28C541.935 31.4 542.935 31.02 544.115 31.02C545.915 31.02 547.175 32.14 547.175 33.9C547.175 35.52 545.915 36.76 544.095 36.76C542.455 36.76 541.295 36.12 540.415 35L539.395 36.1C540.395 37.42 541.835 38.24 544.095 38.24ZM556.431 38.24C559.351 38.24 561.111 36.2 561.111 33.88C561.111 31.04 559.151 29.62 556.751 29.62C555.031 29.62 553.551 30.78 552.971 31.7C552.951 31.52 552.951 31.36 552.951 31.18C552.951 28.56 554.131 25.94 556.711 25.94C558.111 25.94 558.891 26.5 559.571 27.3L560.411 26.06C559.591 25.12 558.431 24.46 556.711 24.46C552.971 24.46 551.291 27.74 551.291 31.36C551.291 34.98 552.711 38.24 556.431 38.24ZM556.371 36.76C554.051 36.76 553.171 34.72 553.011 33.06C553.751 31.88 555.031 31.06 556.351 31.06C558.071 31.06 559.431 31.98 559.431 33.94C559.431 35.22 558.431 36.76 556.371 36.76ZM568.508 38.24C571.188 38.24 573.248 36.56 573.248 33.84C573.248 31.1 571.228 29.58 569.008 29.58C567.668 29.58 566.528 30.14 565.888 30.78V26.14H572.388V24.66H564.228V31.86L565.448 32.28C566.348 31.4 567.348 31.02 568.528 31.02C570.328 31.02 571.588 32.14 571.588 33.9C571.588 35.52 570.328 36.76 568.508 36.76C566.868 36.76 565.708 36.12 564.828 35L563.808 36.1C564.808 37.42 566.248 38.24 568.508 38.24ZM575.925 41.98C577.745 39.52 578.765 36.36 578.765 33.14C578.765 29.92 577.745 26.78 575.925 24.3L575.025 24.98C576.325 27.52 577.125 29.8 577.125 33.14C577.125 36.46 576.325 38.76 575.025 41.28L575.925 41.98Z" fill="black"/>
</svg>
