<svg width="144" height="39" viewBox="0 0 144 39" fill="none" xmlns="http://www.w3.org/2000/svg">
<path d="M17.2156 4.90625C17.2156 6.0625 16.8198 6.95312 16.0281 7.57812C15.2417 8.19792 14.1141 8.50781 12.6453 8.50781H11.3016V13H9.97343V1.57812H12.9344C15.7885 1.57812 17.2156 2.6875 17.2156 4.90625ZM11.3016 7.36719H12.4969C13.674 7.36719 14.5255 7.17708 15.0516 6.79688C15.5776 6.41667 15.8406 5.80729 15.8406 4.96875C15.8406 4.21354 15.5932 3.65104 15.0984 3.28125C14.6036 2.91146 13.8328 2.72656 12.7859 2.72656H11.3016V7.36719ZM27.1294 8.71094C27.1294 10.1068 26.7778 11.1979 26.0747 11.9844C25.3716 12.7656 24.4002 13.1562 23.1606 13.1562C22.395 13.1562 21.7153 12.9766 21.1216 12.6172C20.5278 12.2578 20.0695 11.7422 19.7466 11.0703C19.4236 10.3984 19.2622 9.61198 19.2622 8.71094C19.2622 7.3151 19.6111 6.22917 20.3091 5.45312C21.007 4.67188 21.9757 4.28125 23.2153 4.28125C24.4132 4.28125 25.3637 4.67969 26.0669 5.47656C26.7752 6.27344 27.1294 7.35156 27.1294 8.71094ZM20.6059 8.71094C20.6059 9.80469 20.8247 10.638 21.2622 11.2109C21.6997 11.7839 22.3429 12.0703 23.1919 12.0703C24.0408 12.0703 24.6841 11.7865 25.1216 11.2188C25.5643 10.6458 25.7856 9.8099 25.7856 8.71094C25.7856 7.6224 25.5643 6.79688 25.1216 6.23438C24.6841 5.66667 24.0356 5.38281 23.1762 5.38281C22.3273 5.38281 21.6867 5.66146 21.2544 6.21875C20.8221 6.77604 20.6059 7.60677 20.6059 8.71094ZM36.7228 13L35.1525 7.97656C35.0535 7.66927 34.8686 6.97135 34.5978 5.88281H34.5353C34.327 6.79427 34.1447 7.4974 33.9884 7.99219L32.3712 13H30.8712L28.5353 4.4375H29.8947C30.4468 6.58854 30.866 8.22656 31.1525 9.35156C31.4442 10.4766 31.6108 11.2344 31.6525 11.625H31.715C31.7723 11.3281 31.8634 10.9453 31.9884 10.4766C32.1186 10.0026 32.2306 9.6276 32.3244 9.35156L33.8947 4.4375H35.3009L36.8322 9.35156C37.1239 10.2474 37.3218 11 37.4259 11.6094H37.4884C37.5093 11.4219 37.564 11.1328 37.6525 10.7422C37.7462 10.3516 38.2905 8.25 39.2853 4.4375H40.6291L38.2619 13H36.7228ZM46.1209 13.1562C44.8553 13.1562 43.8553 12.7708 43.1209 12C42.3918 11.2292 42.0272 10.1589 42.0272 8.78906C42.0272 7.40885 42.3657 6.3125 43.0428 5.5C43.7251 4.6875 44.6392 4.28125 45.785 4.28125C46.8579 4.28125 47.7069 4.63542 48.3319 5.34375C48.9569 6.04688 49.2694 6.97656 49.2694 8.13281V8.95312H43.3709C43.397 9.95833 43.6496 10.7214 44.1287 11.2422C44.6131 11.763 45.2928 12.0234 46.1678 12.0234C47.0897 12.0234 48.0011 11.8307 48.9022 11.4453V12.6016C48.4439 12.7995 48.009 12.9401 47.5975 13.0234C47.1912 13.112 46.6991 13.1562 46.1209 13.1562ZM45.7694 5.36719C45.0819 5.36719 44.5324 5.59115 44.1209 6.03906C43.7147 6.48698 43.4751 7.10677 43.4022 7.89844H47.8787C47.8787 7.08073 47.6965 6.45573 47.3319 6.02344C46.9673 5.58594 46.4465 5.36719 45.7694 5.36719ZM55.7144 4.28125C56.0946 4.28125 56.4357 4.3125 56.7378 4.375L56.5581 5.57812C56.204 5.5 55.8915 5.46094 55.6206 5.46094C54.9279 5.46094 54.3342 5.74219 53.8394 6.30469C53.3498 6.86719 53.105 7.56771 53.105 8.40625V13H51.8081V4.4375H52.8784L53.0269 6.02344H53.0894C53.4071 5.46615 53.7899 5.03646 54.2378 4.73438C54.6857 4.43229 55.1779 4.28125 55.7144 4.28125ZM62.2766 13.1562C61.0109 13.1562 60.0109 12.7708 59.2766 12C58.5474 11.2292 58.1828 10.1589 58.1828 8.78906C58.1828 7.40885 58.5213 6.3125 59.1984 5.5C59.8807 4.6875 60.7948 4.28125 61.9406 4.28125C63.0135 4.28125 63.8625 4.63542 64.4875 5.34375C65.1125 6.04688 65.425 6.97656 65.425 8.13281V8.95312H59.5266C59.5526 9.95833 59.8052 10.7214 60.2844 11.2422C60.7687 11.763 61.4484 12.0234 62.3234 12.0234C63.2453 12.0234 64.1568 11.8307 65.0578 11.4453V12.6016C64.5995 12.7995 64.1646 12.9401 63.7531 13.0234C63.3469 13.112 62.8547 13.1562 62.2766 13.1562ZM61.925 5.36719C61.2375 5.36719 60.688 5.59115 60.2766 6.03906C59.8703 6.48698 59.6307 7.10677 59.5578 7.89844H64.0344C64.0344 7.08073 63.8521 6.45573 63.4875 6.02344C63.1229 5.58594 62.6021 5.36719 61.925 5.36719ZM73.7919 11.8516H73.7216C73.1226 12.7214 72.2268 13.1562 71.0341 13.1562C69.9143 13.1562 69.0419 12.7734 68.4169 12.0078C67.7971 11.2422 67.4872 10.1536 67.4872 8.74219C67.4872 7.33073 67.7997 6.23438 68.4247 5.45312C69.0497 4.67188 69.9195 4.28125 71.0341 4.28125C72.1955 4.28125 73.0861 4.70312 73.7059 5.54688H73.8075L73.7528 4.92969L73.7216 4.32812V0.84375H75.0184V13H73.9637L73.7919 11.8516ZM71.1981 12.0703C72.0835 12.0703 72.7242 11.8307 73.12 11.3516C73.521 10.8672 73.7216 10.0885 73.7216 9.01562V8.74219C73.7216 7.52865 73.5184 6.66406 73.1122 6.14844C72.7111 5.6276 72.0679 5.36719 71.1825 5.36719C70.4221 5.36719 69.8387 5.66406 69.4325 6.25781C69.0315 6.84635 68.8309 7.67969 68.8309 8.75781C68.8309 9.85156 69.0315 10.6771 69.4325 11.2344C69.8335 11.7917 70.4221 12.0703 71.1981 12.0703ZM86.5569 4.29688C87.6819 4.29688 88.5543 4.68229 89.1741 5.45312C89.7991 6.21875 90.1116 7.30469 90.1116 8.71094C90.1116 10.1172 89.7965 11.2109 89.1662 11.9922C88.5412 12.7682 87.6715 13.1562 86.5569 13.1562C85.9996 13.1562 85.4892 13.0547 85.0256 12.8516C84.5673 12.6432 84.1819 12.3255 83.8694 11.8984H83.7756L83.5022 13H82.5725V0.84375H83.8694V3.79688C83.8694 4.45833 83.8485 5.05208 83.8069 5.57812H83.8694C84.4735 4.72396 85.3694 4.29688 86.5569 4.29688ZM86.3694 5.38281C85.484 5.38281 84.8459 5.63802 84.4553 6.14844C84.0647 6.65365 83.8694 7.50781 83.8694 8.71094C83.8694 9.91406 84.0699 10.776 84.4709 11.2969C84.872 11.8125 85.5152 12.0703 86.4006 12.0703C87.1975 12.0703 87.7912 11.7812 88.1819 11.2031C88.5725 10.6198 88.7678 9.78385 88.7678 8.69531C88.7678 7.58073 88.5725 6.75 88.1819 6.20312C87.7912 5.65625 87.1871 5.38281 86.3694 5.38281ZM91.3456 4.4375H92.7362L94.6112 9.32031C95.0227 10.4349 95.2779 11.2396 95.3769 11.7344H95.4394C95.5071 11.4688 95.6477 11.0156 95.8612 10.375C96.08 9.72917 96.7883 7.75 97.9862 4.4375H99.3769L95.6972 14.1875C95.3326 15.151 94.9055 15.8333 94.4159 16.2344C93.9316 16.6406 93.3352 16.8438 92.6269 16.8438C92.231 16.8438 91.8404 16.7995 91.455 16.7109V15.6719C91.7415 15.7344 92.0618 15.7656 92.4159 15.7656C93.3066 15.7656 93.942 15.2656 94.3222 14.2656L94.7987 13.0469L91.3456 4.4375ZM112.126 13H105.759V1.57812H112.126V2.75781H107.087V6.4375H111.822V7.60938H107.087V11.8125H112.126V13ZM121.431 9.96094C121.431 10.9661 121.066 11.75 120.337 12.3125C119.608 12.875 118.618 13.1562 117.368 13.1562C116.014 13.1562 114.972 12.9818 114.243 12.6328V11.3516C114.712 11.5495 115.222 11.7057 115.774 11.8203C116.326 11.9349 116.873 11.9922 117.415 11.9922C118.3 11.9922 118.967 11.8255 119.415 11.4922C119.863 11.1536 120.087 10.6849 120.087 10.0859C120.087 9.6901 120.006 9.36719 119.845 9.11719C119.688 8.86198 119.423 8.6276 119.048 8.41406C118.678 8.20052 118.113 7.95833 117.352 7.6875C116.29 7.30729 115.53 6.85677 115.071 6.33594C114.618 5.8151 114.392 5.13542 114.392 4.29688C114.392 3.41667 114.722 2.71615 115.384 2.19531C116.045 1.67448 116.92 1.41406 118.009 1.41406C119.144 1.41406 120.188 1.6224 121.142 2.03906L120.727 3.19531C119.785 2.79948 118.868 2.60156 117.977 2.60156C117.274 2.60156 116.725 2.7526 116.329 3.05469C115.933 3.35677 115.735 3.77604 115.735 4.3125C115.735 4.70833 115.808 5.03385 115.954 5.28906C116.1 5.53906 116.345 5.77083 116.688 5.98438C117.037 6.19271 117.569 6.42448 118.282 6.67969C119.48 7.10677 120.303 7.5651 120.751 8.05469C121.204 8.54427 121.431 9.17969 121.431 9.96094ZM130.532 9.96094C130.532 10.9661 130.167 11.75 129.438 12.3125C128.709 12.875 127.719 13.1562 126.469 13.1562C125.115 13.1562 124.074 12.9818 123.344 12.6328V11.3516C123.813 11.5495 124.324 11.7057 124.876 11.8203C125.428 11.9349 125.975 11.9922 126.516 11.9922C127.402 11.9922 128.068 11.8255 128.516 11.4922C128.964 11.1536 129.188 10.6849 129.188 10.0859C129.188 9.6901 129.107 9.36719 128.946 9.11719C128.79 8.86198 128.524 8.6276 128.149 8.41406C127.779 8.20052 127.214 7.95833 126.454 7.6875C125.391 7.30729 124.631 6.85677 124.173 6.33594C123.719 5.8151 123.493 5.13542 123.493 4.29688C123.493 3.41667 123.824 2.71615 124.485 2.19531C125.146 1.67448 126.021 1.41406 127.11 1.41406C128.245 1.41406 129.29 1.6224 130.243 2.03906L129.829 3.19531C128.886 2.79948 127.969 2.60156 127.079 2.60156C126.376 2.60156 125.826 2.7526 125.43 3.05469C125.034 3.35677 124.837 3.77604 124.837 4.3125C124.837 4.70833 124.909 5.03385 125.055 5.28906C125.201 5.53906 125.446 5.77083 125.79 5.98438C126.139 6.19271 126.67 6.42448 127.383 6.67969C128.581 7.10677 129.404 7.5651 129.852 8.05469C130.305 8.54427 130.532 9.17969 130.532 9.96094ZM139.555 13H133.188V1.57812H139.555V2.75781H134.516V6.4375H139.25V7.60938H134.516V11.8125H139.555V13ZM8.92 35L7.49812 31.3672H2.92L1.51375 35H0.169998L4.68562 23.5312H5.80281L10.295 35H8.92ZM7.08406 30.1719L5.75594 26.6328C5.58406 26.1849 5.40698 25.6354 5.22469 24.9844C5.1101 25.4844 4.94604 26.0339 4.7325 26.6328L3.38875 30.1719H7.08406ZM13.2869 35H11.99V22.8438H13.2869V35ZM17.6537 35H16.3569V22.8438H17.6537V35ZM29.1062 26.2812C29.4865 26.2812 29.8276 26.3125 30.1297 26.375L29.95 27.5781C29.5958 27.5 29.2833 27.4609 29.0125 27.4609C28.3198 27.4609 27.726 27.7422 27.2312 28.3047C26.7417 28.8672 26.4969 29.5677 26.4969 30.4062V35H25.2V26.4375H26.2703L26.4187 28.0234H26.4812C26.799 27.4661 27.1818 27.0365 27.6297 26.7344C28.0776 26.4323 28.5698 26.2812 29.1062 26.2812ZM33.3481 35H32.0512V26.4375H33.3481V35ZM31.9419 24.1172C31.9419 23.8203 32.0148 23.6042 32.1606 23.4688C32.3065 23.3281 32.4887 23.2578 32.7075 23.2578C32.9158 23.2578 33.0955 23.3281 33.2466 23.4688C33.3976 23.6094 33.4731 23.8255 33.4731 24.1172C33.4731 24.4089 33.3976 24.6276 33.2466 24.7734C33.0955 24.9141 32.9158 24.9844 32.7075 24.9844C32.4887 24.9844 32.3065 24.9141 32.1606 24.7734C32.0148 24.6276 31.9419 24.4089 31.9419 24.1172ZM43.4259 26.4375V27.2578L41.84 27.4453C41.9858 27.6276 42.116 27.8672 42.2306 28.1641C42.3452 28.4557 42.4025 28.7865 42.4025 29.1562C42.4025 29.9948 42.116 30.6641 41.5431 31.1641C40.9702 31.6641 40.1837 31.9141 39.1837 31.9141C38.9285 31.9141 38.689 31.8932 38.465 31.8516C37.9129 32.1432 37.6369 32.5104 37.6369 32.9531C37.6369 33.1875 37.7332 33.362 37.9259 33.4766C38.1186 33.5859 38.4494 33.6406 38.9181 33.6406H40.4337C41.3608 33.6406 42.0718 33.8359 42.5666 34.2266C43.0666 34.6172 43.3166 35.1849 43.3166 35.9297C43.3166 36.8776 42.9364 37.599 42.1759 38.0938C41.4155 38.5938 40.3061 38.8438 38.8478 38.8438C37.728 38.8438 36.8634 38.6354 36.2541 38.2188C35.6499 37.8021 35.3478 37.2135 35.3478 36.4531C35.3478 35.9323 35.5145 35.4818 35.8478 35.1016C36.1811 34.7214 36.6499 34.4635 37.2541 34.3281C37.0353 34.2292 36.8504 34.0755 36.6994 33.8672C36.5535 33.6589 36.4806 33.4167 36.4806 33.1406C36.4806 32.8281 36.564 32.5547 36.7306 32.3203C36.8973 32.0859 37.1603 31.8594 37.5197 31.6406C37.077 31.4583 36.715 31.1484 36.4337 30.7109C36.1577 30.2734 36.0197 29.7734 36.0197 29.2109C36.0197 28.2734 36.3009 27.5521 36.8634 27.0469C37.4259 26.5365 38.2228 26.2812 39.2541 26.2812C39.702 26.2812 40.1056 26.3333 40.465 26.4375H43.4259ZM36.5978 36.4375C36.5978 36.901 36.7931 37.2526 37.1837 37.4922C37.5744 37.7318 38.1343 37.8516 38.8634 37.8516C39.952 37.8516 40.7567 37.6875 41.2775 37.3594C41.8035 37.0365 42.0666 36.5964 42.0666 36.0391C42.0666 35.5755 41.9233 35.2526 41.6369 35.0703C41.3504 34.8932 40.8114 34.8047 40.0197 34.8047H38.465C37.8765 34.8047 37.4181 34.9453 37.09 35.2266C36.7619 35.5078 36.5978 35.9115 36.5978 36.4375ZM37.3009 29.1797C37.3009 29.7786 37.4702 30.2318 37.8087 30.5391C38.1473 30.8464 38.6186 31 39.2228 31C40.4884 31 41.1212 30.3854 41.1212 29.1562C41.1212 27.8698 40.4806 27.2266 39.1994 27.2266C38.59 27.2266 38.1212 27.3906 37.7931 27.7188C37.465 28.0469 37.3009 28.5339 37.3009 29.1797ZM51.3631 35V29.4609C51.3631 28.763 51.2043 28.2422 50.8866 27.8984C50.5689 27.5547 50.0715 27.3828 49.3944 27.3828C48.4933 27.3828 47.8345 27.6276 47.4178 28.1172C47.0064 28.6068 46.8006 29.4089 46.8006 30.5234V35H45.5037V22.8438H46.8006V26.5234C46.8006 26.9661 46.7798 27.3333 46.7381 27.625H46.8162C47.0715 27.2135 47.4334 26.8906 47.9022 26.6562C48.3761 26.4167 48.9152 26.2969 49.5194 26.2969C50.5662 26.2969 51.3501 26.5469 51.8709 27.0469C52.397 27.5417 52.66 28.3307 52.66 29.4141V35H51.3631ZM58.4175 34.0859C58.6467 34.0859 58.868 34.0703 59.0816 34.0391C59.2951 34.0026 59.4644 33.9661 59.5894 33.9297V34.9219C59.4487 34.9896 59.2404 35.0443 58.9644 35.0859C58.6935 35.1328 58.4487 35.1562 58.23 35.1562C56.5737 35.1562 55.7456 34.2839 55.7456 32.5391V27.4453H54.5191V26.8203L55.7456 26.2812L56.2925 24.4531H57.0425V26.4375H59.5269V27.4453H57.0425V32.4844C57.0425 33 57.1649 33.3958 57.4097 33.6719C57.6545 33.9479 57.9904 34.0859 58.4175 34.0859ZM67.1516 32.6641C67.1516 33.4609 66.8547 34.0755 66.2609 34.5078C65.6672 34.9401 64.8339 35.1562 63.7609 35.1562C62.6255 35.1562 61.7401 34.9766 61.1047 34.6172V33.4141C61.5161 33.6224 61.9562 33.7865 62.425 33.9062C62.899 34.026 63.3547 34.0859 63.7922 34.0859C64.4693 34.0859 64.9901 33.9792 65.3547 33.7656C65.7193 33.5469 65.9016 33.2161 65.9016 32.7734C65.9016 32.4401 65.7557 32.1562 65.4641 31.9219C65.1776 31.6823 64.6151 31.401 63.7766 31.0781C62.9797 30.7812 62.412 30.5234 62.0734 30.3047C61.7401 30.0807 61.4901 29.8281 61.3234 29.5469C61.162 29.2656 61.0812 28.9297 61.0812 28.5391C61.0812 27.8411 61.3651 27.2917 61.9328 26.8906C62.5005 26.4844 63.2792 26.2812 64.2687 26.2812C65.1906 26.2812 66.0917 26.4688 66.9719 26.8438L66.5109 27.8984C65.6516 27.5443 64.8729 27.3672 64.175 27.3672C63.5604 27.3672 63.0969 27.4635 62.7844 27.6562C62.4719 27.849 62.3156 28.1146 62.3156 28.4531C62.3156 28.6823 62.3729 28.8776 62.4875 29.0391C62.6073 29.2005 62.7974 29.3542 63.0578 29.5C63.3182 29.6458 63.8182 29.8568 64.5578 30.1328C65.5734 30.5026 66.2583 30.875 66.6125 31.25C66.9719 31.625 67.1516 32.0964 67.1516 32.6641ZM77.9712 26.2812C78.3515 26.2812 78.6926 26.3125 78.9947 26.375L78.815 27.5781C78.4608 27.5 78.1483 27.4609 77.8775 27.4609C77.1848 27.4609 76.591 27.7422 76.0962 28.3047C75.6067 28.8672 75.3619 29.5677 75.3619 30.4062V35H74.065V26.4375H75.1353L75.2837 28.0234H75.3462C75.664 27.4661 76.0468 27.0365 76.4947 26.7344C76.9426 26.4323 77.4348 26.2812 77.9712 26.2812ZM84.5334 35.1562C83.2678 35.1562 82.2678 34.7708 81.5334 34C80.8043 33.2292 80.4397 32.1589 80.4397 30.7891C80.4397 29.4089 80.7782 28.3125 81.4553 27.5C82.1376 26.6875 83.0517 26.2812 84.1975 26.2812C85.2704 26.2812 86.1194 26.6354 86.7444 27.3438C87.3694 28.0469 87.6819 28.9766 87.6819 30.1328V30.9531H81.7834C81.8095 31.9583 82.0621 32.7214 82.5412 33.2422C83.0256 33.763 83.7053 34.0234 84.5803 34.0234C85.5022 34.0234 86.4136 33.8307 87.3147 33.4453V34.6016C86.8563 34.7995 86.4215 34.9401 86.01 35.0234C85.6037 35.112 85.1116 35.1562 84.5334 35.1562ZM84.1819 27.3672C83.4944 27.3672 82.9449 27.5911 82.5334 28.0391C82.1272 28.487 81.8876 29.1068 81.8147 29.8984H86.2912C86.2912 29.0807 86.109 28.4557 85.7444 28.0234C85.3798 27.5859 84.859 27.3672 84.1819 27.3672ZM95.7441 32.6641C95.7441 33.4609 95.4472 34.0755 94.8534 34.5078C94.2597 34.9401 93.4264 35.1562 92.3534 35.1562C91.218 35.1562 90.3326 34.9766 89.6972 34.6172V33.4141C90.1086 33.6224 90.5488 33.7865 91.0175 33.9062C91.4915 34.026 91.9472 34.0859 92.3847 34.0859C93.0618 34.0859 93.5826 33.9792 93.9472 33.7656C94.3118 33.5469 94.4941 33.2161 94.4941 32.7734C94.4941 32.4401 94.3482 32.1562 94.0566 31.9219C93.7701 31.6823 93.2076 31.401 92.3691 31.0781C91.5722 30.7812 91.0045 30.5234 90.6659 30.3047C90.3326 30.0807 90.0826 29.8281 89.9159 29.5469C89.7545 29.2656 89.6738 28.9297 89.6738 28.5391C89.6738 27.8411 89.9576 27.2917 90.5253 26.8906C91.093 26.4844 91.8717 26.2812 92.8613 26.2812C93.7831 26.2812 94.6842 26.4688 95.5644 26.8438L95.1034 27.8984C94.2441 27.5443 93.4654 27.3672 92.7675 27.3672C92.1529 27.3672 91.6894 27.4635 91.3769 27.6562C91.0644 27.849 90.9081 28.1146 90.9081 28.4531C90.9081 28.6823 90.9654 28.8776 91.08 29.0391C91.1998 29.2005 91.3899 29.3542 91.6503 29.5C91.9107 29.6458 92.4107 29.8568 93.1503 30.1328C94.1659 30.5026 94.8508 30.875 95.205 31.25C95.5644 31.625 95.7441 32.0964 95.7441 32.6641ZM101.798 35.1562C100.533 35.1562 99.5328 34.7708 98.7984 34C98.0693 33.2292 97.7047 32.1589 97.7047 30.7891C97.7047 29.4089 98.0432 28.3125 98.7203 27.5C99.4026 26.6875 100.317 26.2812 101.463 26.2812C102.535 26.2812 103.384 26.6354 104.009 27.3438C104.634 28.0469 104.947 28.9766 104.947 30.1328V30.9531H99.0484C99.0745 31.9583 99.3271 32.7214 99.8063 33.2422C100.291 33.763 100.97 34.0234 101.845 34.0234C102.767 34.0234 103.679 33.8307 104.58 33.4453V34.6016C104.121 34.7995 103.686 34.9401 103.275 35.0234C102.869 35.112 102.377 35.1562 101.798 35.1562ZM101.447 27.3672C100.759 27.3672 100.21 27.5911 99.7984 28.0391C99.3922 28.487 99.1526 29.1068 99.0797 29.8984H103.556C103.556 29.0807 103.374 28.4557 103.009 28.0234C102.645 27.5859 102.124 27.3672 101.447 27.3672ZM111.392 26.2812C111.772 26.2812 112.113 26.3125 112.415 26.375L112.236 27.5781C111.881 27.5 111.569 27.4609 111.298 27.4609C110.605 27.4609 110.012 27.7422 109.517 28.3047C109.027 28.8672 108.783 29.5677 108.783 30.4062V35H107.486V26.4375H108.556L108.704 28.0234H108.767C109.085 27.4661 109.467 27.0365 109.915 26.7344C110.363 26.4323 110.855 26.2812 111.392 26.2812ZM116.212 35L112.962 26.4375H114.353L116.196 31.5156C116.613 32.7031 116.858 33.474 116.931 33.8281H116.993C117.05 33.5521 117.23 32.9818 117.532 32.1172C117.839 31.2474 118.524 29.3542 119.587 26.4375H120.978L117.728 35H116.212ZM126.29 35.1562C125.024 35.1562 124.024 34.7708 123.29 34C122.561 33.2292 122.196 32.1589 122.196 30.7891C122.196 29.4089 122.534 28.3125 123.212 27.5C123.894 26.6875 124.808 26.2812 125.954 26.2812C127.027 26.2812 127.876 26.6354 128.501 27.3438C129.126 28.0469 129.438 28.9766 129.438 30.1328V30.9531H123.54C123.566 31.9583 123.818 32.7214 124.298 33.2422C124.782 33.763 125.462 34.0234 126.337 34.0234C127.258 34.0234 128.17 33.8307 129.071 33.4453V34.6016C128.613 34.7995 128.178 34.9401 127.766 35.0234C127.36 35.112 126.868 35.1562 126.29 35.1562ZM125.938 27.3672C125.251 27.3672 124.701 27.5911 124.29 28.0391C123.883 28.487 123.644 29.1068 123.571 29.8984H128.048C128.048 29.0807 127.865 28.4557 127.501 28.0234C127.136 27.5859 126.615 27.3672 125.938 27.3672ZM137.805 33.8516H137.735C137.136 34.7214 136.24 35.1562 135.047 35.1562C133.927 35.1562 133.055 34.7734 132.43 34.0078C131.81 33.2422 131.5 32.1536 131.5 30.7422C131.5 29.3307 131.813 28.2344 132.438 27.4531C133.063 26.6719 133.933 26.2812 135.047 26.2812C136.209 26.2812 137.099 26.7031 137.719 27.5469H137.821L137.766 26.9297L137.735 26.3281V22.8438H139.032V35H137.977L137.805 33.8516ZM135.211 34.0703C136.097 34.0703 136.737 33.8307 137.133 33.3516C137.534 32.8672 137.735 32.0885 137.735 31.0156V30.7422C137.735 29.5286 137.532 28.6641 137.125 28.1484C136.724 27.6276 136.081 27.3672 135.196 27.3672C134.435 27.3672 133.852 27.6641 133.446 28.2578C133.045 28.8464 132.844 29.6797 132.844 30.7578C132.844 31.8516 133.045 32.6771 133.446 33.2344C133.847 33.7917 134.435 34.0703 135.211 34.0703ZM141.922 34.1719C141.922 33.8229 142 33.5599 142.156 33.3828C142.318 33.2005 142.547 33.1094 142.844 33.1094C143.146 33.1094 143.38 33.2005 143.547 33.3828C143.719 33.5599 143.805 33.8229 143.805 34.1719C143.805 34.5104 143.719 34.7708 143.547 34.9531C143.375 35.1354 143.141 35.2266 142.844 35.2266C142.578 35.2266 142.357 35.1458 142.18 34.9844C142.008 34.8177 141.922 34.5469 141.922 34.1719Z" fill="white"/>
</svg>
